7
Properties=species:S:1:pos:R:3 pbc="F F F"
C        1.12960000       0.08490000      -0.07290000
C        0.61830000       0.10110000      -1.49540000
H        0.76350000      -0.82890000       0.43790000
H        0.76190000       0.98180000       0.46690000
H        0.98510000       1.01300000      -2.01000000
X        2.52950000       0.08590000      -0.08090000
X        1.08260000      -1.03410000      -2.17040000
