491
Properties=species:S:1:pos:R:3:tags:I:1:initial_magmoms:R:1 pbc="F F F"
N        1.62279422       0.61943069      10.00000000       10       0.00000000
Ga       1.62279422       2.59300000      10.00000000       10       0.00000000
Ga      -0.00000000       0.00000000      10.93692068        9       0.00000000
N       -0.00000000       3.21243069      10.93692068        9       0.00000000
N       -0.00000000       0.61943069      12.81076204        8       0.00000000
Ga      -0.00000000       2.59300000      12.81076204        8       0.00000000
Ga       1.62279422       0.00000000      13.74768273        7       0.00000000
N        1.62279422       3.21243069      13.74768273        7       0.00000000
N        1.62279422       0.61943069      15.62152409        6       0.00000000
Ga       1.62279422       2.59300000      15.62152409        6       0.00000000
Ga      -0.00000000       0.00000000      16.55844477        5       0.00000000
N       -0.00000000       3.21243069      16.55844477        5       0.00000000
N       -0.00000000       0.61943069      18.43228613        4       0.00000000
Ga      -0.00000000       2.59300000      18.43228613        4       0.00000000
Ga       1.62279422       0.00000000      19.36920681        3       0.00000000
N        1.62279422       3.21243069      19.36920681        3       0.00000000
N        1.62279422       0.61943069      21.24304818        2       0.00000000
Ga       1.62279422       2.59300000      21.24304818        2       0.00000000
Ga       0.00000000       0.00000000      22.17996886        1       0.00000000
N        0.00000000       3.21243069      22.17996886        1       0.00000000
N        1.62279422       5.80543069      10.00000000       10       0.00000000
Ga       1.62279422       7.77900000      10.00000000       10       0.00000000
Ga      -0.00000000       5.18600000      10.93692068        9       0.00000000
N       -0.00000000       8.39843069      10.93692068        9       0.00000000
N       -0.00000000       5.80543069      12.81076204        8       0.00000000
Ga      -0.00000000       7.77900000      12.81076204        8       0.00000000
Ga       1.62279422       5.18600000      13.74768273        7       0.00000000
N        1.62279422       8.39843069      13.74768273        7       0.00000000
N        1.62279422       5.80543069      15.62152409        6       0.00000000
Ga       1.62279422       7.77900000      15.62152409        6       0.00000000
Ga      -0.00000000       5.18600000      16.55844477        5       0.00000000
N       -0.00000000       8.39843069      16.55844477        5       0.00000000
N       -0.00000000       5.80543069      18.43228613        4       0.00000000
Ga      -0.00000000       7.77900000      18.43228613        4       0.00000000
Ga       1.62279422       5.18600000      19.36920681        3       0.00000000
N        1.62279422       8.39843069      19.36920681        3       0.00000000
N        1.62279422       5.80543069      21.24304818        2       0.00000000
Ga       1.62279422       7.77900000      21.24304818        2       0.00000000
Ga       0.00000000       5.18600000      22.17996886        1       0.00000000
N        0.00000000       8.39843069      22.17996886        1       0.00000000
N        1.62279422      10.99143069      10.00000000       10       0.00000000
Ga       1.62279422      12.96500000      10.00000000       10       0.00000000
Ga      -0.00000000      10.37200000      10.93692068        9       0.00000000
N       -0.00000000      13.58443069      10.93692068        9       0.00000000
N       -0.00000000      10.99143069      12.81076204        8       0.00000000
Ga      -0.00000000      12.96500000      12.81076204        8       0.00000000
Ga       1.62279422      10.37200000      13.74768273        7       0.00000000
N        1.62279422      13.58443069      13.74768273        7       0.00000000
N        1.62279422      10.99143069      15.62152409        6       0.00000000
Ga       1.62279422      12.96500000      15.62152409        6       0.00000000
Ga      -0.00000000      10.37200000      16.55844477        5       0.00000000
N       -0.00000000      13.58443069      16.55844477        5       0.00000000
N       -0.00000000      10.99143069      18.43228613        4       0.00000000
Ga      -0.00000000      12.96500000      18.43228613        4       0.00000000
Ga       1.62279422      10.37200000      19.36920681        3       0.00000000
N        1.62279422      13.58443069      19.36920681        3       0.00000000
N        1.62279422      10.99143069      21.24304818        2       0.00000000
Ga       1.62279422      12.96500000      21.24304818        2       0.00000000
Ga       0.00000000      10.37200000      22.17996886        1       0.00000000
N        0.00000000      13.58443069      22.17996886        1       0.00000000
N        1.62279422      16.17743069      10.00000000       10       0.00000000
Ga       1.62279422      18.15100000      10.00000000       10       0.00000000
Ga      -0.00000000      15.55800000      10.93692068        9       0.00000000
N       -0.00000000      18.77043069      10.93692068        9       0.00000000
N       -0.00000000      16.17743069      12.81076204        8       0.00000000
Ga      -0.00000000      18.15100000      12.81076204        8       0.00000000
Ga       1.62279422      15.55800000      13.74768273        7       0.00000000
N        1.62279422      18.77043069      13.74768273        7       0.00000000
N        1.62279422      16.17743069      15.62152409        6       0.00000000
Ga       1.62279422      18.15100000      15.62152409        6       0.00000000
Ga      -0.00000000      15.55800000      16.55844477        5       0.00000000
N       -0.00000000      18.77043069      16.55844477        5       0.00000000
N       -0.00000000      16.17743069      18.43228613        4       0.00000000
Ga      -0.00000000      18.15100000      18.43228613        4       0.00000000
Ga       1.62279422      15.55800000      19.36920681        3       0.00000000
N        1.62279422      18.77043069      19.36920681        3       0.00000000
N        1.62279422      16.17743069      21.24304818        2       0.00000000
Ga       1.62279422      18.15100000      21.24304818        2       0.00000000
Ga       0.00000000      15.55800000      22.17996886        1       0.00000000
N        0.00000000      18.77043069      22.17996886        1       0.00000000
N        4.86838267       0.61943069      10.00000000       10       0.00000000
Ga       4.86838267       2.59300000      10.00000000       10       0.00000000
Ga       3.24558845       0.00000000      10.93692068        9       0.00000000
N        3.24558845       3.21243069      10.93692068        9       0.00000000
N        3.24558845       0.61943069      12.81076204        8       0.00000000
Ga       3.24558845       2.59300000      12.81076204        8       0.00000000
Ga       4.86838267       0.00000000      13.74768273        7       0.00000000
N        4.86838267       3.21243069      13.74768273        7       0.00000000
N        4.86838267       0.61943069      15.62152409        6       0.00000000
Ga       4.86838267       2.59300000      15.62152409        6       0.00000000
Ga       3.24558845       0.00000000      16.55844477        5       0.00000000
N        3.24558845       3.21243069      16.55844477        5       0.00000000
N        3.24558845       0.61943069      18.43228613        4       0.00000000
Ga       3.24558845       2.59300000      18.43228613        4       0.00000000
Ga       4.86838267       0.00000000      19.36920681        3       0.00000000
N        4.86838267       3.21243069      19.36920681        3       0.00000000
N        4.86838267       0.61943069      21.24304818        2       0.00000000
Ga       4.86838267       2.59300000      21.24304818        2       0.00000000
Ga       3.24558845       0.00000000      22.17996886        1       0.00000000
N        3.24558845       3.21243069      22.17996886        1       0.00000000
N        4.86838267       5.80543069      10.00000000       10       0.00000000
Ga       4.86838267       7.77900000      10.00000000       10       0.00000000
Ga       3.24558845       5.18600000      10.93692068        9       0.00000000
N        3.24558845       8.39843069      10.93692068        9       0.00000000
N        3.24558845       5.80543069      12.81076204        8       0.00000000
Ga       3.24558845       7.77900000      12.81076204        8       0.00000000
Ga       4.86838267       5.18600000      13.74768273        7       0.00000000
N        4.86838267       8.39843069      13.74768273        7       0.00000000
N        4.86838267       5.80543069      15.62152409        6       0.00000000
Ga       4.86838267       7.77900000      15.62152409        6       0.00000000
Ga       3.24558845       5.18600000      16.55844477        5       0.00000000
N        3.24558845       8.39843069      16.55844477        5       0.00000000
N        3.24558845       5.80543069      18.43228613        4       0.00000000
Ga       3.24558845       7.77900000      18.43228613        4       0.00000000
Ga       4.86838267       5.18600000      19.36920681        3       0.00000000
N        4.86838267       8.39843069      19.36920681        3       0.00000000
N        4.86838267       5.80543069      21.24304818        2       0.00000000
Ga       4.86838267       7.77900000      21.24304818        2       0.00000000
Ga       3.24558845       5.18600000      22.17996886        1       0.00000000
N        3.24558845       8.39843069      22.17996886        1       0.00000000
N        4.86838267      10.99143069      10.00000000       10       0.00000000
Ga       4.86838267      12.96500000      10.00000000       10       0.00000000
Ga       3.24558845      10.37200000      10.93692068        9       0.00000000
N        3.24558845      13.58443069      10.93692068        9       0.00000000
N        3.24558845      10.99143069      12.81076204        8       0.00000000
Ga       3.24558845      12.96500000      12.81076204        8       0.00000000
Ga       4.86838267      10.37200000      13.74768273        7       0.00000000
N        4.86838267      13.58443069      13.74768273        7       0.00000000
N        4.86838267      10.99143069      15.62152409        6       0.00000000
Ga       4.86838267      12.96500000      15.62152409        6       0.00000000
Ga       3.24558845      10.37200000      16.55844477        5       0.00000000
N        3.24558845      13.58443069      16.55844477        5       0.00000000
N        3.24558845      10.99143069      18.43228613        4       0.00000000
Ga       3.24558845      12.96500000      18.43228613        4       0.00000000
Ga       4.86838267      10.37200000      19.36920681        3       0.00000000
N        4.86838267      13.58443069      19.36920681        3       0.00000000
N        4.86838267      10.99143069      21.24304818        2       0.00000000
Ga       4.86838267      12.96500000      21.24304818        2       0.00000000
Ga       3.24558845      10.37200000      22.17996886        1       0.00000000
N        3.24558845      13.58443069      22.17996886        1       0.00000000
N        4.86838267      16.17743069      10.00000000       10       0.00000000
Ga       4.86838267      18.15100000      10.00000000       10       0.00000000
Ga       3.24558845      15.55800000      10.93692068        9       0.00000000
N        3.24558845      18.77043069      10.93692068        9       0.00000000
N        3.24558845      16.17743069      12.81076204        8       0.00000000
Ga       3.24558845      18.15100000      12.81076204        8       0.00000000
Ga       4.86838267      15.55800000      13.74768273        7       0.00000000
N        4.86838267      18.77043069      13.74768273        7       0.00000000
N        4.86838267      16.17743069      15.62152409        6       0.00000000
Ga       4.86838267      18.15100000      15.62152409        6       0.00000000
Ga       3.24558845      15.55800000      16.55844477        5       0.00000000
N        3.24558845      18.77043069      16.55844477        5       0.00000000
N        3.24558845      16.17743069      18.43228613        4       0.00000000
Ga       3.24558845      18.15100000      18.43228613        4       0.00000000
Ga       4.86838267      15.55800000      19.36920681        3       0.00000000
N        4.86838267      18.77043069      19.36920681        3       0.00000000
N        4.86838267      16.17743069      21.24304818        2       0.00000000
Ga       4.86838267      18.15100000      21.24304818        2       0.00000000
Ga       3.24558845      15.55800000      22.17996886        1       0.00000000
N        3.24558845      18.77043069      22.17996886        1       0.00000000
N        8.11397111       0.61943069      10.00000000       10       0.00000000
Ga       8.11397111       2.59300000      10.00000000       10       0.00000000
Ga       6.49117689       0.00000000      10.93692068        9       0.00000000
N        6.49117689       3.21243069      10.93692068        9       0.00000000
N        6.49117689       0.61943069      12.81076204        8       0.00000000
Ga       6.49117689       2.59300000      12.81076204        8       0.00000000
Ga       8.11397111       0.00000000      13.74768273        7       0.00000000
N        8.11397111       3.21243069      13.74768273        7       0.00000000
N        8.11397111       0.61943069      15.62152409        6       0.00000000
Ga       8.11397111       2.59300000      15.62152409        6       0.00000000
Ga       6.49117689       0.00000000      16.55844477        5       0.00000000
N        6.49117689       3.21243069      16.55844477        5       0.00000000
N        6.49117689       0.61943069      18.43228613        4       0.00000000
Ga       6.49117689       2.59300000      18.43228613        4       0.00000000
Ga       8.11397111       0.00000000      19.36920681        3       0.00000000
N        8.11397111       3.21243069      19.36920681        3       0.00000000
N        8.11397111       0.61943069      21.24304818        2       0.00000000
Ga       8.11397111       2.59300000      21.24304818        2       0.00000000
Ga       6.49117689       0.00000000      22.17996886        1       0.00000000
N        6.49117689       3.21243069      22.17996886        1       0.00000000
N        8.11397111       5.80543069      10.00000000       10       0.00000000
Ga       8.11397111       7.77900000      10.00000000       10       0.00000000
Ga       6.49117689       5.18600000      10.93692068        9       0.00000000
N        6.49117689       8.39843069      10.93692068        9       0.00000000
N        6.49117689       5.80543069      12.81076204        8       0.00000000
Ga       6.49117689       7.77900000      12.81076204        8       0.00000000
Ga       8.11397111       5.18600000      13.74768273        7       0.00000000
N        8.11397111       8.39843069      13.74768273        7       0.00000000
N        8.11397111       5.80543069      15.62152409        6       0.00000000
Ga       8.11397111       7.77900000      15.62152409        6       0.00000000
Ga       6.49117689       5.18600000      16.55844477        5       0.00000000
N        6.49117689       8.39843069      16.55844477        5       0.00000000
N        6.49117689       5.80543069      18.43228613        4       0.00000000
Ga       6.49117689       7.77900000      18.43228613        4       0.00000000
Ga       8.11397111       5.18600000      19.36920681        3       0.00000000
N        8.11397111       8.39843069      19.36920681        3       0.00000000
N        8.11397111       5.80543069      21.24304818        2       0.00000000
Ga       8.11397111       7.77900000      21.24304818        2       0.00000000
Ga       6.49117689       5.18600000      22.17996886        1       0.00000000
N        6.49117689       8.39843069      22.17996886        1       0.00000000
N        8.11397111      10.99143069      10.00000000       10       0.00000000
Ga       8.11397111      12.96500000      10.00000000       10       0.00000000
Ga       6.49117689      10.37200000      10.93692068        9       0.00000000
N        6.49117689      13.58443069      10.93692068        9       0.00000000
N        6.49117689      10.99143069      12.81076204        8       0.00000000
Ga       6.49117689      12.96500000      12.81076204        8       0.00000000
Ga       8.11397111      10.37200000      13.74768273        7       0.00000000
N        8.11397111      13.58443069      13.74768273        7       0.00000000
N        8.11397111      10.99143069      15.62152409        6       0.00000000
Ga       8.11397111      12.96500000      15.62152409        6       0.00000000
Ga       6.49117689      10.37200000      16.55844477        5       0.00000000
N        6.49117689      13.58443069      16.55844477        5       0.00000000
N        6.49117689      10.99143069      18.43228613        4       0.00000000
Ga       6.49117689      12.96500000      18.43228613        4       0.00000000
Ga       8.11397111      10.37200000      19.36920681        3       0.00000000
N        8.11397111      13.58443069      19.36920681        3       0.00000000
N        8.11397111      10.99143069      21.24304818        2       0.00000000
Ga       8.11397111      12.96500000      21.24304818        2       0.00000000
Ga       6.49117689      10.37200000      22.17996886        1       0.00000000
N        6.49117689      13.58443069      22.17996886        1       0.00000000
N        8.11397111      16.17743069      10.00000000       10       0.00000000
Ga       8.11397111      18.15100000      10.00000000       10       0.00000000
Ga       6.49117689      15.55800000      10.93692068        9       0.00000000
N        6.49117689      18.77043069      10.93692068        9       0.00000000
N        6.49117689      16.17743069      12.81076204        8       0.00000000
Ga       6.49117689      18.15100000      12.81076204        8       0.00000000
Ga       8.11397111      15.55800000      13.74768273        7       0.00000000
N        8.11397111      18.77043069      13.74768273        7       0.00000000
N        8.11397111      16.17743069      15.62152409        6       0.00000000
Ga       8.11397111      18.15100000      15.62152409        6       0.00000000
Ga       6.49117689      15.55800000      16.55844477        5       0.00000000
N        6.49117689      18.77043069      16.55844477        5       0.00000000
N        6.49117689      16.17743069      18.43228613        4       0.00000000
Ga       6.49117689      18.15100000      18.43228613        4       0.00000000
Ga       8.11397111      15.55800000      19.36920681        3       0.00000000
N        8.11397111      18.77043069      19.36920681        3       0.00000000
N        8.11397111      16.17743069      21.24304818        2       0.00000000
Ga       8.11397111      18.15100000      21.24304818        2       0.00000000
Ga       6.49117689      15.55800000      22.17996886        1       0.00000000
N        6.49117689      18.77043069      22.17996886        1       0.00000000
N       11.35955956       0.61943069      10.00000000       10       0.00000000
Ga      11.35955956       2.59300000      10.00000000       10       0.00000000
Ga       9.73676534       0.00000000      10.93692068        9       0.00000000
N        9.73676534       3.21243069      10.93692068        9       0.00000000
N        9.73676534       0.61943069      12.81076204        8       0.00000000
Ga       9.73676534       2.59300000      12.81076204        8       0.00000000
Ga      11.35955956       0.00000000      13.74768273        7       0.00000000
N       11.35955956       3.21243069      13.74768273        7       0.00000000
N       11.35955956       0.61943069      15.62152409        6       0.00000000
Ga      11.35955956       2.59300000      15.62152409        6       0.00000000
Ga       9.73676534       0.00000000      16.55844477        5       0.00000000
N        9.73676534       3.21243069      16.55844477        5       0.00000000
N        9.73676534       0.61943069      18.43228613        4       0.00000000
Ga       9.73676534       2.59300000      18.43228613        4       0.00000000
Ga      11.35955956       0.00000000      19.36920681        3       0.00000000
N       11.35955956       3.21243069      19.36920681        3       0.00000000
N       11.35955956       0.61943069      21.24304818        2       0.00000000
Ga      11.35955956       2.59300000      21.24304818        2       0.00000000
Ga       9.73676534       0.00000000      22.17996886        1       0.00000000
N        9.73676534       3.21243069      22.17996886        1       0.00000000
N       11.35955956       5.80543069      10.00000000       10       0.00000000
Ga      11.35955956       7.77900000      10.00000000       10       0.00000000
Ga       9.73676534       5.18600000      10.93692068        9       0.00000000
N        9.73676534       8.39843069      10.93692068        9       0.00000000
N        9.73676534       5.80543069      12.81076204        8       0.00000000
Ga       9.73676534       7.77900000      12.81076204        8       0.00000000
Ga      11.35955956       5.18600000      13.74768273        7       0.00000000
N       11.35955956       8.39843069      13.74768273        7       0.00000000
N       11.35955956       5.80543069      15.62152409        6       0.00000000
Ga      11.35955956       7.77900000      15.62152409        6       0.00000000
Ga       9.73676534       5.18600000      16.55844477        5       0.00000000
N        9.73676534       8.39843069      16.55844477        5       0.00000000
N        9.73676534       5.80543069      18.43228613        4       0.00000000
Ga       9.73676534       7.77900000      18.43228613        4       0.00000000
Ga      11.35955956       5.18600000      19.36920681        3       0.00000000
N       11.35955956       8.39843069      19.36920681        3       0.00000000
N       11.35955956       5.80543069      21.24304818        2       0.00000000
Ga      11.35955956       7.77900000      21.24304818        2       0.00000000
Ga       9.73676534       5.18600000      22.17996886        1       0.00000000
N        9.73676534       8.39843069      22.17996886        1       0.00000000
N       11.35955956      10.99143069      10.00000000       10       0.00000000
Ga      11.35955956      12.96500000      10.00000000       10       0.00000000
Ga       9.73676534      10.37200000      10.93692068        9       0.00000000
N        9.73676534      13.58443069      10.93692068        9       0.00000000
N        9.73676534      10.99143069      12.81076204        8       0.00000000
Ga       9.73676534      12.96500000      12.81076204        8       0.00000000
Ga      11.35955956      10.37200000      13.74768273        7       0.00000000
N       11.35955956      13.58443069      13.74768273        7       0.00000000
N       11.35955956      10.99143069      15.62152409        6       0.00000000
Ga      11.35955956      12.96500000      15.62152409        6       0.00000000
Ga       9.73676534      10.37200000      16.55844477        5       0.00000000
N        9.73676534      13.58443069      16.55844477        5       0.00000000
N        9.73676534      10.99143069      18.43228613        4       0.00000000
Ga       9.73676534      12.96500000      18.43228613        4       0.00000000
Ga      11.35955956      10.37200000      19.36920681        3       0.00000000
N       11.35955956      13.58443069      19.36920681        3       0.00000000
N       11.35955956      10.99143069      21.24304818        2       0.00000000
Ga      11.35955956      12.96500000      21.24304818        2       0.00000000
Ga       9.73676534      10.37200000      22.17996886        1       0.00000000
N        9.73676534      13.58443069      22.17996886        1       0.00000000
N       11.35955956      16.17743069      10.00000000       10       0.00000000
Ga      11.35955956      18.15100000      10.00000000       10       0.00000000
Ga       9.73676534      15.55800000      10.93692068        9       0.00000000
N        9.73676534      18.77043069      10.93692068        9       0.00000000
N        9.73676534      16.17743069      12.81076204        8       0.00000000
Ga       9.73676534      18.15100000      12.81076204        8       0.00000000
Ga      11.35955956      15.55800000      13.74768273        7       0.00000000
N       11.35955956      18.77043069      13.74768273        7       0.00000000
N       11.35955956      16.17743069      15.62152409        6       0.00000000
Ga      11.35955956      18.15100000      15.62152409        6       0.00000000
Ga       9.73676534      15.55800000      16.55844477        5       0.00000000
N        9.73676534      18.77043069      16.55844477        5       0.00000000
N        9.73676534      16.17743069      18.43228613        4       0.00000000
Ga       9.73676534      18.15100000      18.43228613        4       0.00000000
Ga      11.35955956      15.55800000      19.36920681        3       0.00000000
N       11.35955956      18.77043069      19.36920681        3       0.00000000
N       11.35955956      16.17743069      21.24304818        2       0.00000000
Ga      11.35955956      18.15100000      21.24304818        2       0.00000000
Ga       9.73676534      15.55800000      22.17996886        1       0.00000000
N        9.73676534      18.77043069      22.17996886        1       0.00000000
N       14.60514800       0.61943069      10.00000000       10       0.00000000
Ga      14.60514800       2.59300000      10.00000000       10       0.00000000
Ga      12.98235378       0.00000000      10.93692068        9       0.00000000
N       12.98235378       3.21243069      10.93692068        9       0.00000000
N       12.98235378       0.61943069      12.81076204        8       0.00000000
Ga      12.98235378       2.59300000      12.81076204        8       0.00000000
Ga      14.60514800       0.00000000      13.74768273        7       0.00000000
N       14.60514800       3.21243069      13.74768273        7       0.00000000
N       14.60514800       0.61943069      15.62152409        6       0.00000000
Ga      14.60514800       2.59300000      15.62152409        6       0.00000000
Ga      12.98235378       0.00000000      16.55844477        5       0.00000000
N       12.98235378       3.21243069      16.55844477        5       0.00000000
N       12.98235378       0.61943069      18.43228613        4       0.00000000
Ga      12.98235378       2.59300000      18.43228613        4       0.00000000
Ga      14.60514800       0.00000000      19.36920681        3       0.00000000
N       14.60514800       3.21243069      19.36920681        3       0.00000000
N       14.60514800       0.61943069      21.24304818        2       0.00000000
Ga      14.60514800       2.59300000      21.24304818        2       0.00000000
Ga      12.98235378       0.00000000      22.17996886        1       0.00000000
N       12.98235378       3.21243069      22.17996886        1       0.00000000
N       14.60514800       5.80543069      10.00000000       10       0.00000000
Ga      14.60514800       7.77900000      10.00000000       10       0.00000000
Ga      12.98235378       5.18600000      10.93692068        9       0.00000000
N       12.98235378       8.39843069      10.93692068        9       0.00000000
N       12.98235378       5.80543069      12.81076204        8       0.00000000
Ga      12.98235378       7.77900000      12.81076204        8       0.00000000
Ga      14.60514800       5.18600000      13.74768273        7       0.00000000
N       14.60514800       8.39843069      13.74768273        7       0.00000000
N       14.60514800       5.80543069      15.62152409        6       0.00000000
Ga      14.60514800       7.77900000      15.62152409        6       0.00000000
Ga      12.98235378       5.18600000      16.55844477        5       0.00000000
N       12.98235378       8.39843069      16.55844477        5       0.00000000
N       12.98235378       5.80543069      18.43228613        4       0.00000000
Ga      12.98235378       7.77900000      18.43228613        4       0.00000000
Ga      14.60514800       5.18600000      19.36920681        3       0.00000000
N       14.60514800       8.39843069      19.36920681        3       0.00000000
N       14.60514800       5.80543069      21.24304818        2       0.00000000
Ga      14.60514800       7.77900000      21.24304818        2       0.00000000
Ga      12.98235378       5.18600000      22.17996886        1       0.00000000
N       12.98235378       8.39843069      22.17996886        1       0.00000000
N       14.60514800      10.99143069      10.00000000       10       0.00000000
Ga      14.60514800      12.96500000      10.00000000       10       0.00000000
Ga      12.98235378      10.37200000      10.93692068        9       0.00000000
N       12.98235378      13.58443069      10.93692068        9       0.00000000
N       12.98235378      10.99143069      12.81076204        8       0.00000000
Ga      12.98235378      12.96500000      12.81076204        8       0.00000000
Ga      14.60514800      10.37200000      13.74768273        7       0.00000000
N       14.60514800      13.58443069      13.74768273        7       0.00000000
N       14.60514800      10.99143069      15.62152409        6       0.00000000
Ga      14.60514800      12.96500000      15.62152409        6       0.00000000
Ga      12.98235378      10.37200000      16.55844477        5       0.00000000
N       12.98235378      13.58443069      16.55844477        5       0.00000000
N       12.98235378      10.99143069      18.43228613        4       0.00000000
Ga      12.98235378      12.96500000      18.43228613        4       0.00000000
Ga      14.60514800      10.37200000      19.36920681        3       0.00000000
N       14.60514800      13.58443069      19.36920681        3       0.00000000
N       14.60514800      10.99143069      21.24304818        2       0.00000000
Ga      14.60514800      12.96500000      21.24304818        2       0.00000000
Ga      12.98235378      10.37200000      22.17996886        1       0.00000000
N       12.98235378      13.58443069      22.17996886        1       0.00000000
N       14.60514800      16.17743069      10.00000000       10       0.00000000
Ga      14.60514800      18.15100000      10.00000000       10       0.00000000
Ga      12.98235378      15.55800000      10.93692068        9       0.00000000
N       12.98235378      18.77043069      10.93692068        9       0.00000000
N       12.98235378      16.17743069      12.81076204        8       0.00000000
Ga      12.98235378      18.15100000      12.81076204        8       0.00000000
Ga      14.60514800      15.55800000      13.74768273        7       0.00000000
N       14.60514800      18.77043069      13.74768273        7       0.00000000
N       14.60514800      16.17743069      15.62152409        6       0.00000000
Ga      14.60514800      18.15100000      15.62152409        6       0.00000000
Ga      12.98235378      15.55800000      16.55844477        5       0.00000000
N       12.98235378      18.77043069      16.55844477        5       0.00000000
N       12.98235378      16.17743069      18.43228613        4       0.00000000
Ga      12.98235378      18.15100000      18.43228613        4       0.00000000
Ga      14.60514800      15.55800000      19.36920681        3       0.00000000
N       14.60514800      18.77043069      19.36920681        3       0.00000000
N       14.60514800      16.17743069      21.24304818        2       0.00000000
Ga      14.60514800      18.15100000      21.24304818        2       0.00000000
Ga      12.98235378      15.55800000      22.17996886        1       0.00000000
N       12.98235378      18.77043069      22.17996886        1       0.00000000
N       17.85073645       0.61943069      10.00000000       10       0.00000000
Ga      17.85073645       2.59300000      10.00000000       10       0.00000000
Ga      16.22794223       0.00000000      10.93692068        9       0.00000000
N       16.22794223       3.21243069      10.93692068        9       0.00000000
N       16.22794223       0.61943069      12.81076204        8       0.00000000
Ga      16.22794223       2.59300000      12.81076204        8       0.00000000
Ga      17.85073645       0.00000000      13.74768273        7       0.00000000
N       17.85073645       3.21243069      13.74768273        7       0.00000000
N       17.85073645       0.61943069      15.62152409        6       0.00000000
Ga      17.85073645       2.59300000      15.62152409        6       0.00000000
Ga      16.22794223       0.00000000      16.55844477        5       0.00000000
N       16.22794223       3.21243069      16.55844477        5       0.00000000
N       16.22794223       0.61943069      18.43228613        4       0.00000000
Ga      16.22794223       2.59300000      18.43228613        4       0.00000000
Ga      17.85073645       0.00000000      19.36920681        3       0.00000000
N       17.85073645       3.21243069      19.36920681        3       0.00000000
N       17.85073645       0.61943069      21.24304818        2       0.00000000
Ga      17.85073645       2.59300000      21.24304818        2       0.00000000
Ga      16.22794223       0.00000000      22.17996886        1       0.00000000
N       16.22794223       3.21243069      22.17996886        1       0.00000000
N       17.85073645       5.80543069      10.00000000       10       0.00000000
Ga      17.85073645       7.77900000      10.00000000       10       0.00000000
Ga      16.22794223       5.18600000      10.93692068        9       0.00000000
N       16.22794223       8.39843069      10.93692068        9       0.00000000
N       16.22794223       5.80543069      12.81076204        8       0.00000000
Ga      16.22794223       7.77900000      12.81076204        8       0.00000000
Ga      17.85073645       5.18600000      13.74768273        7       0.00000000
N       17.85073645       8.39843069      13.74768273        7       0.00000000
N       17.85073645       5.80543069      15.62152409        6       0.00000000
Ga      17.85073645       7.77900000      15.62152409        6       0.00000000
Ga      16.22794223       5.18600000      16.55844477        5       0.00000000
N       16.22794223       8.39843069      16.55844477        5       0.00000000
N       16.22794223       5.80543069      18.43228613        4       0.00000000
Ga      16.22794223       7.77900000      18.43228613        4       0.00000000
Ga      17.85073645       5.18600000      19.36920681        3       0.00000000
N       17.85073645       8.39843069      19.36920681        3       0.00000000
N       17.85073645       5.80543069      21.24304818        2       0.00000000
Ga      17.85073645       7.77900000      21.24304818        2       0.00000000
Ga      16.22794223       5.18600000      22.17996886        1       0.00000000
N       16.22794223       8.39843069      22.17996886        1       0.00000000
N       17.85073645      10.99143069      10.00000000       10       0.00000000
Ga      17.85073645      12.96500000      10.00000000       10       0.00000000
Ga      16.22794223      10.37200000      10.93692068        9       0.00000000
N       16.22794223      13.58443069      10.93692068        9       0.00000000
N       16.22794223      10.99143069      12.81076204        8       0.00000000
Ga      16.22794223      12.96500000      12.81076204        8       0.00000000
Ga      17.85073645      10.37200000      13.74768273        7       0.00000000
N       17.85073645      13.58443069      13.74768273        7       0.00000000
N       17.85073645      10.99143069      15.62152409        6       0.00000000
Ga      17.85073645      12.96500000      15.62152409        6       0.00000000
Ga      16.22794223      10.37200000      16.55844477        5       0.00000000
N       16.22794223      13.58443069      16.55844477        5       0.00000000
N       16.22794223      10.99143069      18.43228613        4       0.00000000
Ga      16.22794223      12.96500000      18.43228613        4       0.00000000
Ga      17.85073645      10.37200000      19.36920681        3       0.00000000
N       17.85073645      13.58443069      19.36920681        3       0.00000000
N       17.85073645      10.99143069      21.24304818        2       0.00000000
Ga      17.85073645      12.96500000      21.24304818        2       0.00000000
Ga      16.22794223      10.37200000      22.17996886        1       0.00000000
N       16.22794223      13.58443069      22.17996886        1       0.00000000
N       17.85073645      16.17743069      10.00000000       10       0.00000000
Ga      17.85073645      18.15100000      10.00000000       10       0.00000000
Ga      16.22794223      15.55800000      10.93692068        9       0.00000000
N       16.22794223      18.77043069      10.93692068        9       0.00000000
N       16.22794223      16.17743069      12.81076204        8       0.00000000
Ga      16.22794223      18.15100000      12.81076204        8       0.00000000
Ga      17.85073645      15.55800000      13.74768273        7       0.00000000
N       17.85073645      18.77043069      13.74768273        7       0.00000000
N       17.85073645      16.17743069      15.62152409        6       0.00000000
Ga      17.85073645      18.15100000      15.62152409        6       0.00000000
Ga      16.22794223      15.55800000      16.55844477        5       0.00000000
N       16.22794223      18.77043069      16.55844477        5       0.00000000
N       16.22794223      16.17743069      18.43228613        4       0.00000000
Ga      16.22794223      18.15100000      18.43228613        4       0.00000000
Ga      17.85073645      15.55800000      19.36920681        3       0.00000000
N       17.85073645      18.77043069      19.36920681        3       0.00000000
N       17.85073645      16.17743069      21.24304818        2       0.00000000
Ga      17.85073645      18.15100000      21.24304818        2       0.00000000
Ga      16.22794223      15.55800000      22.17996886        1       0.00000000
N       16.22794223      18.77043069      22.17996886        1       0.00000000
C       11.02568988      12.61335534      24.09257007        0       0.00000000
C       10.17767332      13.54227151      23.23642747        0       0.00000000
C        8.97386227      14.03867914      24.03069977        0       0.00000000
C        8.11479049      12.86667714      24.47392223        0       0.00000000
H       10.42196895      11.73930330      24.41818731        0       0.00000000
H       11.38415597      13.15336220      24.99305243        0       0.00000000
H       10.78803563      14.40890981      22.90358329        0       0.00000000
H        9.82737054      12.98906316      22.33851439        0       0.00000000
H        9.32139284      14.59150781      24.92932042        0       0.00000000
H        8.36645403      14.72518616      23.40408470        0       0.00000000
H        7.24182036      13.23368238      25.05539668        0       0.00000000
