612
Lattice="19.473530671280287 0.0 0.0 0.0 20.744 0.0 0.0 0.0 32.17996885639746" Properties=species:S:1:pos:R:3:initial_magmoms:R:1:surface_atoms:R:1:tags:I:1 pbc="T T F"
N        1.62279422       0.61943069      10.00000000       0.00000000      -1.00000000       10
Ga       1.62279422       2.59300000      10.00000000       0.00000000      -1.00000000       10
Ga      -0.00000000       0.00000000      10.93692068       0.00000000      -1.00000000        9
N       -0.00000000       3.21243069      10.93692068       0.00000000      -1.00000000        9
N       -0.00000000       0.61943069      12.81076204       0.00000000       0.00000000        8
Ga      -0.00000000       2.59300000      12.81076204       0.00000000       0.00000000        8
Ga       1.62279422       0.00000000      13.74768273       0.00000000       0.00000000        7
N        1.62279422       3.21243069      13.74768273       0.00000000       0.00000000        7
N        1.62279422       0.61943069      15.62152409       0.00000000       0.00000000        6
Ga       1.62279422       2.59300000      15.62152409       0.00000000       0.00000000        6
Ga      -0.00000000       0.00000000      16.55844477       0.00000000       0.00000000        5
N       -0.00000000       3.21243069      16.55844477       0.00000000       0.00000000        5
N       -0.00000000       0.61943069      18.43228613       0.00000000       0.00000000        4
Ga      -0.00000000       2.59300000      18.43228613       0.00000000       0.00000000        4
Ga       1.62279422       0.00000000      19.36920681       0.00000000       0.00000000        3
N        1.62279422       3.21243069      19.36920681       0.00000000       0.00000000        3
N        1.62279422       0.61943069      21.24304818       0.00000000       1.00000000        2
Ga       1.62279422       2.59300000      21.24304818       0.00000000       1.00000000        2
Ga       0.00000000       0.00000000      22.17996886       0.00000000       1.00000000        1
N        0.00000000       3.21243069      22.17996886       0.00000000       1.00000000        1
Cl       1.62279422       1.61943069      21.54304818       0.00000000       0.00000000        0
Be       0.00000000       0.00000000      22.17996886       0.00000000       0.00000000        0
F        0.00000000       0.00000000      23.97996886       0.00000000       0.00000000        0
Be       0.00000000       3.21243069      22.17996886       0.00000000       0.00000000        0
F        0.00000000       3.21243069      23.97996886       0.00000000       0.00000000        0
N        1.62279422       5.80543069      10.00000000       0.00000000      -1.00000000       10
Ga       1.62279422       7.77900000      10.00000000       0.00000000      -1.00000000       10
Ga      -0.00000000       5.18600000      10.93692068       0.00000000      -1.00000000        9
N       -0.00000000       8.39843069      10.93692068       0.00000000      -1.00000000        9
N       -0.00000000       5.80543069      12.81076204       0.00000000       0.00000000        8
Ga      -0.00000000       7.77900000      12.81076204       0.00000000       0.00000000        8
Ga       1.62279422       5.18600000      13.74768273       0.00000000       0.00000000        7
N        1.62279422       8.39843069      13.74768273       0.00000000       0.00000000        7
N        1.62279422       5.80543069      15.62152409       0.00000000       0.00000000        6
Ga       1.62279422       7.77900000      15.62152409       0.00000000       0.00000000        6
Ga      -0.00000000       5.18600000      16.55844477       0.00000000       0.00000000        5
N       -0.00000000       8.39843069      16.55844477       0.00000000       0.00000000        5
N       -0.00000000       5.80543069      18.43228613       0.00000000       0.00000000        4
Ga      -0.00000000       7.77900000      18.43228613       0.00000000       0.00000000        4
Ga       1.62279422       5.18600000      19.36920681       0.00000000       0.00000000        3
N        1.62279422       8.39843069      19.36920681       0.00000000       0.00000000        3
N        1.62279422       5.80543069      21.24304818       0.00000000       1.00000000        2
Ga       1.62279422       7.77900000      21.24304818       0.00000000       1.00000000        2
Ga       0.00000000       5.18600000      22.17996886       0.00000000       1.00000000        1
N        0.00000000       8.39843069      22.17996886       0.00000000       1.00000000        1
Cl       1.62279422       6.80543069      21.54304818       0.00000000       0.00000000        0
Be       0.00000000       5.18600000      22.17996886       0.00000000       0.00000000        0
F        0.00000000       5.18600000      23.97996886       0.00000000       0.00000000        0
Be       0.00000000       8.39843069      22.17996886       0.00000000       0.00000000        0
F        0.00000000       8.39843069      23.97996886       0.00000000       0.00000000        0
N        1.62279422      10.99143069      10.00000000       0.00000000      -1.00000000       10
Ga       1.62279422      12.96500000      10.00000000       0.00000000      -1.00000000       10
Ga      -0.00000000      10.37200000      10.93692068       0.00000000      -1.00000000        9
N       -0.00000000      13.58443069      10.93692068       0.00000000      -1.00000000        9
N       -0.00000000      10.99143069      12.81076204       0.00000000       0.00000000        8
Ga      -0.00000000      12.96500000      12.81076204       0.00000000       0.00000000        8
Ga       1.62279422      10.37200000      13.74768273       0.00000000       0.00000000        7
N        1.62279422      13.58443069      13.74768273       0.00000000       0.00000000        7
N        1.62279422      10.99143069      15.62152409       0.00000000       0.00000000        6
Ga       1.62279422      12.96500000      15.62152409       0.00000000       0.00000000        6
Ga      -0.00000000      10.37200000      16.55844477       0.00000000       0.00000000        5
N       -0.00000000      13.58443069      16.55844477       0.00000000       0.00000000        5
N       -0.00000000      10.99143069      18.43228613       0.00000000       0.00000000        4
Ga      -0.00000000      12.96500000      18.43228613       0.00000000       0.00000000        4
Ga       1.62279422      10.37200000      19.36920681       0.00000000       0.00000000        3
N        1.62279422      13.58443069      19.36920681       0.00000000       0.00000000        3
N        1.62279422      10.99143069      21.24304818       0.00000000       1.00000000        2
Ga       1.62279422      12.96500000      21.24304818       0.00000000       1.00000000        2
Ga       0.00000000      10.37200000      22.17996886       0.00000000       1.00000000        1
N        0.00000000      13.58443069      22.17996886       0.00000000       1.00000000        1
Cl       1.62279422      11.99143069      21.54304818       0.00000000       0.00000000        0
Be       0.00000000      10.37200000      22.17996886       0.00000000       0.00000000        0
F        0.00000000      10.37200000      23.97996886       0.00000000       0.00000000        0
Be       0.00000000      13.58443069      22.17996886       0.00000000       0.00000000        0
F        0.00000000      13.58443069      23.97996886       0.00000000       0.00000000        0
N        1.62279422      16.17743069      10.00000000       0.00000000      -1.00000000       10
Ga       1.62279422      18.15100000      10.00000000       0.00000000      -1.00000000       10
Ga      -0.00000000      15.55800000      10.93692068       0.00000000      -1.00000000        9
N       -0.00000000      18.77043069      10.93692068       0.00000000      -1.00000000        9
N       -0.00000000      16.17743069      12.81076204       0.00000000       0.00000000        8
Ga      -0.00000000      18.15100000      12.81076204       0.00000000       0.00000000        8
Ga       1.62279422      15.55800000      13.74768273       0.00000000       0.00000000        7
N        1.62279422      18.77043069      13.74768273       0.00000000       0.00000000        7
N        1.62279422      16.17743069      15.62152409       0.00000000       0.00000000        6
Ga       1.62279422      18.15100000      15.62152409       0.00000000       0.00000000        6
Ga      -0.00000000      15.55800000      16.55844477       0.00000000       0.00000000        5
N       -0.00000000      18.77043069      16.55844477       0.00000000       0.00000000        5
N       -0.00000000      16.17743069      18.43228613       0.00000000       0.00000000        4
Ga      -0.00000000      18.15100000      18.43228613       0.00000000       0.00000000        4
Ga       1.62279422      15.55800000      19.36920681       0.00000000       0.00000000        3
N        1.62279422      18.77043069      19.36920681       0.00000000       0.00000000        3
N        1.62279422      16.17743069      21.24304818       0.00000000       1.00000000        2
Ga       1.62279422      18.15100000      21.24304818       0.00000000       1.00000000        2
Ga       0.00000000      15.55800000      22.17996886       0.00000000       1.00000000        1
N        0.00000000      18.77043069      22.17996886       0.00000000       1.00000000        1
Cl       1.62279422      17.17743069      21.54304818       0.00000000       0.00000000        0
Be       0.00000000      15.55800000      22.17996886       0.00000000       0.00000000        0
F        0.00000000      15.55800000      23.97996886       0.00000000       0.00000000        0
Be       0.00000000      18.77043069      22.17996886       0.00000000       0.00000000        0
F        0.00000000      18.77043069      23.97996886       0.00000000       0.00000000        0
N        4.86838267       0.61943069      10.00000000       0.00000000      -1.00000000       10
Ga       4.86838267       2.59300000      10.00000000       0.00000000      -1.00000000       10
Ga       3.24558845       0.00000000      10.93692068       0.00000000      -1.00000000        9
N        3.24558845       3.21243069      10.93692068       0.00000000      -1.00000000        9
N        3.24558845       0.61943069      12.81076204       0.00000000       0.00000000        8
Ga       3.24558845       2.59300000      12.81076204       0.00000000       0.00000000        8
Ga       4.86838267       0.00000000      13.74768273       0.00000000       0.00000000        7
N        4.86838267       3.21243069      13.74768273       0.00000000       0.00000000        7
N        4.86838267       0.61943069      15.62152409       0.00000000       0.00000000        6
Ga       4.86838267       2.59300000      15.62152409       0.00000000       0.00000000        6
Ga       3.24558845       0.00000000      16.55844477       0.00000000       0.00000000        5
N        3.24558845       3.21243069      16.55844477       0.00000000       0.00000000        5
N        3.24558845       0.61943069      18.43228613       0.00000000       0.00000000        4
Ga       3.24558845       2.59300000      18.43228613       0.00000000       0.00000000        4
Ga       4.86838267       0.00000000      19.36920681       0.00000000       0.00000000        3
N        4.86838267       3.21243069      19.36920681       0.00000000       0.00000000        3
N        4.86838267       0.61943069      21.24304818       0.00000000       1.00000000        2
Ga       4.86838267       2.59300000      21.24304818       0.00000000       1.00000000        2
Ga       3.24558845       0.00000000      22.17996886       0.00000000       1.00000000        1
N        3.24558845       3.21243069      22.17996886       0.00000000       1.00000000        1
Cl       4.86838267       1.61943069      21.54304818       0.00000000       0.00000000        0
Be       3.24558845       0.00000000      22.17996886       0.00000000       0.00000000        0
F        3.24558845       0.00000000      23.97996886       0.00000000       0.00000000        0
Be       3.24558845       3.21243069      22.17996886       0.00000000       0.00000000        0
F        3.24558845       3.21243069      23.97996886       0.00000000       0.00000000        0
N        4.86838267       5.80543069      10.00000000       0.00000000      -1.00000000       10
Ga       4.86838267       7.77900000      10.00000000       0.00000000      -1.00000000       10
Ga       3.24558845       5.18600000      10.93692068       0.00000000      -1.00000000        9
N        3.24558845       8.39843069      10.93692068       0.00000000      -1.00000000        9
N        3.24558845       5.80543069      12.81076204       0.00000000       0.00000000        8
Ga       3.24558845       7.77900000      12.81076204       0.00000000       0.00000000        8
Ga       4.86838267       5.18600000      13.74768273       0.00000000       0.00000000        7
N        4.86838267       8.39843069      13.74768273       0.00000000       0.00000000        7
N        4.86838267       5.80543069      15.62152409       0.00000000       0.00000000        6
Ga       4.86838267       7.77900000      15.62152409       0.00000000       0.00000000        6
Ga       3.24558845       5.18600000      16.55844477       0.00000000       0.00000000        5
N        3.24558845       8.39843069      16.55844477       0.00000000       0.00000000        5
N        3.24558845       5.80543069      18.43228613       0.00000000       0.00000000        4
Ga       3.24558845       7.77900000      18.43228613       0.00000000       0.00000000        4
Ga       4.86838267       5.18600000      19.36920681       0.00000000       0.00000000        3
N        4.86838267       8.39843069      19.36920681       0.00000000       0.00000000        3
N        4.86838267       5.80543069      21.24304818       0.00000000       1.00000000        2
Ga       4.86838267       7.77900000      21.24304818       0.00000000       1.00000000        2
Ga       3.24558845       5.18600000      22.17996886       0.00000000       1.00000000        1
N        3.24558845       8.39843069      22.17996886       0.00000000       1.00000000        1
Cl       4.86838267       6.80543069      21.54304818       0.00000000       0.00000000        0
Be       3.24558845       5.18600000      22.17996886       0.00000000       0.00000000        0
F        3.24558845       5.18600000      23.97996886       0.00000000       0.00000000        0
Be       3.24558845       8.39843069      22.17996886       0.00000000       0.00000000        0
F        3.24558845       8.39843069      23.97996886       0.00000000       0.00000000        0
N        4.86838267      10.99143069      10.00000000       0.00000000      -1.00000000       10
Ga       4.86838267      12.96500000      10.00000000       0.00000000      -1.00000000       10
Ga       3.24558845      10.37200000      10.93692068       0.00000000      -1.00000000        9
N        3.24558845      13.58443069      10.93692068       0.00000000      -1.00000000        9
N        3.24558845      10.99143069      12.81076204       0.00000000       0.00000000        8
Ga       3.24558845      12.96500000      12.81076204       0.00000000       0.00000000        8
Ga       4.86838267      10.37200000      13.74768273       0.00000000       0.00000000        7
N        4.86838267      13.58443069      13.74768273       0.00000000       0.00000000        7
N        4.86838267      10.99143069      15.62152409       0.00000000       0.00000000        6
Ga       4.86838267      12.96500000      15.62152409       0.00000000       0.00000000        6
Ga       3.24558845      10.37200000      16.55844477       0.00000000       0.00000000        5
N        3.24558845      13.58443069      16.55844477       0.00000000       0.00000000        5
N        3.24558845      10.99143069      18.43228613       0.00000000       0.00000000        4
Ga       3.24558845      12.96500000      18.43228613       0.00000000       0.00000000        4
Ga       4.86838267      10.37200000      19.36920681       0.00000000       0.00000000        3
N        4.86838267      13.58443069      19.36920681       0.00000000       0.00000000        3
N        4.86838267      10.99143069      21.24304818       0.00000000       1.00000000        2
Ga       4.86838267      12.96500000      21.24304818       0.00000000       1.00000000        2
Ga       3.24558845      10.37200000      22.17996886       0.00000000       1.00000000        1
N        3.24558845      13.58443069      22.17996886       0.00000000       1.00000000        1
Cl       4.86838267      11.99143069      21.54304818       0.00000000       0.00000000        0
Be       3.24558845      10.37200000      22.17996886       0.00000000       0.00000000        0
F        3.24558845      10.37200000      23.97996886       0.00000000       0.00000000        0
Be       3.24558845      13.58443069      22.17996886       0.00000000       0.00000000        0
F        3.24558845      13.58443069      23.97996886       0.00000000       0.00000000        0
N        4.86838267      16.17743069      10.00000000       0.00000000      -1.00000000       10
Ga       4.86838267      18.15100000      10.00000000       0.00000000      -1.00000000       10
Ga       3.24558845      15.55800000      10.93692068       0.00000000      -1.00000000        9
N        3.24558845      18.77043069      10.93692068       0.00000000      -1.00000000        9
N        3.24558845      16.17743069      12.81076204       0.00000000       0.00000000        8
Ga       3.24558845      18.15100000      12.81076204       0.00000000       0.00000000        8
Ga       4.86838267      15.55800000      13.74768273       0.00000000       0.00000000        7
N        4.86838267      18.77043069      13.74768273       0.00000000       0.00000000        7
N        4.86838267      16.17743069      15.62152409       0.00000000       0.00000000        6
Ga       4.86838267      18.15100000      15.62152409       0.00000000       0.00000000        6
Ga       3.24558845      15.55800000      16.55844477       0.00000000       0.00000000        5
N        3.24558845      18.77043069      16.55844477       0.00000000       0.00000000        5
N        3.24558845      16.17743069      18.43228613       0.00000000       0.00000000        4
Ga       3.24558845      18.15100000      18.43228613       0.00000000       0.00000000        4
Ga       4.86838267      15.55800000      19.36920681       0.00000000       0.00000000        3
N        4.86838267      18.77043069      19.36920681       0.00000000       0.00000000        3
N        4.86838267      16.17743069      21.24304818       0.00000000       1.00000000        2
Ga       4.86838267      18.15100000      21.24304818       0.00000000       1.00000000        2
Ga       3.24558845      15.55800000      22.17996886       0.00000000       1.00000000        1
N        3.24558845      18.77043069      22.17996886       0.00000000       1.00000000        1
Cl       4.86838267      17.17743069      21.54304818       0.00000000       0.00000000        0
Be       3.24558845      15.55800000      22.17996886       0.00000000       0.00000000        0
F        3.24558845      15.55800000      23.97996886       0.00000000       0.00000000        0
Be       3.24558845      18.77043069      22.17996886       0.00000000       0.00000000        0
F        3.24558845      18.77043069      23.97996886       0.00000000       0.00000000        0
N        8.11397111       0.61943069      10.00000000       0.00000000      -1.00000000       10
Ga       8.11397111       2.59300000      10.00000000       0.00000000      -1.00000000       10
Ga       6.49117689       0.00000000      10.93692068       0.00000000      -1.00000000        9
N        6.49117689       3.21243069      10.93692068       0.00000000      -1.00000000        9
N        6.49117689       0.61943069      12.81076204       0.00000000       0.00000000        8
Ga       6.49117689       2.59300000      12.81076204       0.00000000       0.00000000        8
Ga       8.11397111       0.00000000      13.74768273       0.00000000       0.00000000        7
N        8.11397111       3.21243069      13.74768273       0.00000000       0.00000000        7
N        8.11397111       0.61943069      15.62152409       0.00000000       0.00000000        6
Ga       8.11397111       2.59300000      15.62152409       0.00000000       0.00000000        6
Ga       6.49117689       0.00000000      16.55844477       0.00000000       0.00000000        5
N        6.49117689       3.21243069      16.55844477       0.00000000       0.00000000        5
N        6.49117689       0.61943069      18.43228613       0.00000000       0.00000000        4
Ga       6.49117689       2.59300000      18.43228613       0.00000000       0.00000000        4
Ga       8.11397111       0.00000000      19.36920681       0.00000000       0.00000000        3
N        8.11397111       3.21243069      19.36920681       0.00000000       0.00000000        3
N        8.11397111       0.61943069      21.24304818       0.00000000       1.00000000        2
Ga       8.11397111       2.59300000      21.24304818       0.00000000       1.00000000        2
Ga       6.49117689       0.00000000      22.17996886       0.00000000       1.00000000        1
N        6.49117689       3.21243069      22.17996886       0.00000000       1.00000000        1
Cl       8.11397111       1.61943069      21.54304818       0.00000000       0.00000000        0
Be       6.49117689       0.00000000      22.17996886       0.00000000       0.00000000        0
F        6.49117689       0.00000000      23.97996886       0.00000000       0.00000000        0
Be       6.49117689       3.21243069      22.17996886       0.00000000       0.00000000        0
F        6.49117689       3.21243069      23.97996886       0.00000000       0.00000000        0
N        8.11397111       5.80543069      10.00000000       0.00000000      -1.00000000       10
Ga       8.11397111       7.77900000      10.00000000       0.00000000      -1.00000000       10
Ga       6.49117689       5.18600000      10.93692068       0.00000000      -1.00000000        9
N        6.49117689       8.39843069      10.93692068       0.00000000      -1.00000000        9
N        6.49117689       5.80543069      12.81076204       0.00000000       0.00000000        8
Ga       6.49117689       7.77900000      12.81076204       0.00000000       0.00000000        8
Ga       8.11397111       5.18600000      13.74768273       0.00000000       0.00000000        7
N        8.11397111       8.39843069      13.74768273       0.00000000       0.00000000        7
N        8.11397111       5.80543069      15.62152409       0.00000000       0.00000000        6
Ga       8.11397111       7.77900000      15.62152409       0.00000000       0.00000000        6
Ga       6.49117689       5.18600000      16.55844477       0.00000000       0.00000000        5
N        6.49117689       8.39843069      16.55844477       0.00000000       0.00000000        5
N        6.49117689       5.80543069      18.43228613       0.00000000       0.00000000        4
Ga       6.49117689       7.77900000      18.43228613       0.00000000       0.00000000        4
Ga       8.11397111       5.18600000      19.36920681       0.00000000       0.00000000        3
N        8.11397111       8.39843069      19.36920681       0.00000000       0.00000000        3
N        8.11397111       5.80543069      21.24304818       0.00000000       1.00000000        2
Ga       8.11397111       7.77900000      21.24304818       0.00000000       1.00000000        2
Ga       6.49117689       5.18600000      22.17996886       0.00000000       1.00000000        1
N        6.49117689       8.39843069      22.17996886       0.00000000       1.00000000        1
Cl       8.11397111       6.80543069      21.54304818       0.00000000       0.00000000        0
Be       6.49117689       5.18600000      22.17996886       0.00000000       0.00000000        0
F        6.49117689       5.18600000      23.97996886       0.00000000       0.00000000        0
Be       6.49117689       8.39843069      22.17996886       0.00000000       0.00000000        0
F        6.49117689       8.39843069      23.97996886       0.00000000       0.00000000        0
N        8.11397111      10.99143069      10.00000000       0.00000000      -1.00000000       10
Ga       8.11397111      12.96500000      10.00000000       0.00000000      -1.00000000       10
Ga       6.49117689      10.37200000      10.93692068       0.00000000      -1.00000000        9
N        6.49117689      13.58443069      10.93692068       0.00000000      -1.00000000        9
N        6.49117689      10.99143069      12.81076204       0.00000000       0.00000000        8
Ga       6.49117689      12.96500000      12.81076204       0.00000000       0.00000000        8
Ga       8.11397111      10.37200000      13.74768273       0.00000000       0.00000000        7
N        8.11397111      13.58443069      13.74768273       0.00000000       0.00000000        7
N        8.11397111      10.99143069      15.62152409       0.00000000       0.00000000        6
Ga       8.11397111      12.96500000      15.62152409       0.00000000       0.00000000        6
Ga       6.49117689      10.37200000      16.55844477       0.00000000       0.00000000        5
N        6.49117689      13.58443069      16.55844477       0.00000000       0.00000000        5
N        6.49117689      10.99143069      18.43228613       0.00000000       0.00000000        4
Ga       6.49117689      12.96500000      18.43228613       0.00000000       0.00000000        4
Ga       8.11397111      10.37200000      19.36920681       0.00000000       0.00000000        3
N        8.11397111      13.58443069      19.36920681       0.00000000       0.00000000        3
N        8.11397111      10.99143069      21.24304818       0.00000000       1.00000000        2
Ga       8.11397111      12.96500000      21.24304818       0.00000000       1.00000000        2
Ga       6.49117689      10.37200000      22.17996886       0.00000000       1.00000000        1
N        6.49117689      13.58443069      22.17996886       0.00000000       1.00000000        1
Cl       8.11397111      11.99143069      21.54304818       0.00000000       0.00000000        0
Be       6.49117689      10.37200000      22.17996886       0.00000000       0.00000000        0
F        6.49117689      10.37200000      23.97996886       0.00000000       0.00000000        0
Be       6.49117689      13.58443069      22.17996886       0.00000000       0.00000000        0
F        6.49117689      13.58443069      23.97996886       0.00000000       0.00000000        0
N        8.11397111      16.17743069      10.00000000       0.00000000      -1.00000000       10
Ga       8.11397111      18.15100000      10.00000000       0.00000000      -1.00000000       10
Ga       6.49117689      15.55800000      10.93692068       0.00000000      -1.00000000        9
N        6.49117689      18.77043069      10.93692068       0.00000000      -1.00000000        9
N        6.49117689      16.17743069      12.81076204       0.00000000       0.00000000        8
Ga       6.49117689      18.15100000      12.81076204       0.00000000       0.00000000        8
Ga       8.11397111      15.55800000      13.74768273       0.00000000       0.00000000        7
N        8.11397111      18.77043069      13.74768273       0.00000000       0.00000000        7
N        8.11397111      16.17743069      15.62152409       0.00000000       0.00000000        6
Ga       8.11397111      18.15100000      15.62152409       0.00000000       0.00000000        6
Ga       6.49117689      15.55800000      16.55844477       0.00000000       0.00000000        5
N        6.49117689      18.77043069      16.55844477       0.00000000       0.00000000        5
N        6.49117689      16.17743069      18.43228613       0.00000000       0.00000000        4
Ga       6.49117689      18.15100000      18.43228613       0.00000000       0.00000000        4
Ga       8.11397111      15.55800000      19.36920681       0.00000000       0.00000000        3
N        8.11397111      18.77043069      19.36920681       0.00000000       0.00000000        3
N        8.11397111      16.17743069      21.24304818       0.00000000       1.00000000        2
Ga       8.11397111      18.15100000      21.24304818       0.00000000       1.00000000        2
Ga       6.49117689      15.55800000      22.17996886       0.00000000       1.00000000        1
N        6.49117689      18.77043069      22.17996886       0.00000000       1.00000000        1
Cl       8.11397111      17.17743069      21.54304818       0.00000000       0.00000000        0
Be       6.49117689      15.55800000      22.17996886       0.00000000       0.00000000        0
F        6.49117689      15.55800000      23.97996886       0.00000000       0.00000000        0
Be       6.49117689      18.77043069      22.17996886       0.00000000       0.00000000        0
F        6.49117689      18.77043069      23.97996886       0.00000000       0.00000000        0
N       11.35955956       0.61943069      10.00000000       0.00000000      -1.00000000       10
Ga      11.35955956       2.59300000      10.00000000       0.00000000      -1.00000000       10
Ga       9.73676534       0.00000000      10.93692068       0.00000000      -1.00000000        9
N        9.73676534       3.21243069      10.93692068       0.00000000      -1.00000000        9
N        9.73676534       0.61943069      12.81076204       0.00000000       0.00000000        8
Ga       9.73676534       2.59300000      12.81076204       0.00000000       0.00000000        8
Ga      11.35955956       0.00000000      13.74768273       0.00000000       0.00000000        7
N       11.35955956       3.21243069      13.74768273       0.00000000       0.00000000        7
N       11.35955956       0.61943069      15.62152409       0.00000000       0.00000000        6
Ga      11.35955956       2.59300000      15.62152409       0.00000000       0.00000000        6
Ga       9.73676534       0.00000000      16.55844477       0.00000000       0.00000000        5
N        9.73676534       3.21243069      16.55844477       0.00000000       0.00000000        5
N        9.73676534       0.61943069      18.43228613       0.00000000       0.00000000        4
Ga       9.73676534       2.59300000      18.43228613       0.00000000       0.00000000        4
Ga      11.35955956       0.00000000      19.36920681       0.00000000       0.00000000        3
N       11.35955956       3.21243069      19.36920681       0.00000000       0.00000000        3
N       11.35955956       0.61943069      21.24304818       0.00000000       1.00000000        2
Ga      11.35955956       2.59300000      21.24304818       0.00000000       1.00000000        2
Ga       9.73676534       0.00000000      22.17996886       0.00000000       1.00000000        1
N        9.73676534       3.21243069      22.17996886       0.00000000       1.00000000        1
Cl      11.35955956       1.61943069      21.54304818       0.00000000       0.00000000        0
Be       9.73676534       0.00000000      22.17996886       0.00000000       0.00000000        0
F        9.73676534       0.00000000      23.97996886       0.00000000       0.00000000        0
Be       9.73676534       3.21243069      22.17996886       0.00000000       0.00000000        0
F        9.73676534       3.21243069      23.97996886       0.00000000       0.00000000        0
N       11.35955956       5.80543069      10.00000000       0.00000000      -1.00000000       10
Ga      11.35955956       7.77900000      10.00000000       0.00000000      -1.00000000       10
Ga       9.73676534       5.18600000      10.93692068       0.00000000      -1.00000000        9
N        9.73676534       8.39843069      10.93692068       0.00000000      -1.00000000        9
N        9.73676534       5.80543069      12.81076204       0.00000000       0.00000000        8
Ga       9.73676534       7.77900000      12.81076204       0.00000000       0.00000000        8
Ga      11.35955956       5.18600000      13.74768273       0.00000000       0.00000000        7
N       11.35955956       8.39843069      13.74768273       0.00000000       0.00000000        7
N       11.35955956       5.80543069      15.62152409       0.00000000       0.00000000        6
Ga      11.35955956       7.77900000      15.62152409       0.00000000       0.00000000        6
Ga       9.73676534       5.18600000      16.55844477       0.00000000       0.00000000        5
N        9.73676534       8.39843069      16.55844477       0.00000000       0.00000000        5
N        9.73676534       5.80543069      18.43228613       0.00000000       0.00000000        4
Ga       9.73676534       7.77900000      18.43228613       0.00000000       0.00000000        4
Ga      11.35955956       5.18600000      19.36920681       0.00000000       0.00000000        3
N       11.35955956       8.39843069      19.36920681       0.00000000       0.00000000        3
N       11.35955956       5.80543069      21.24304818       0.00000000       1.00000000        2
Ga      11.35955956       7.77900000      21.24304818       0.00000000       1.00000000        2
Ga       9.73676534       5.18600000      22.17996886       0.00000000       1.00000000        1
N        9.73676534       8.39843069      22.17996886       0.00000000       1.00000000        1
Cl      11.35955956       6.80543069      21.54304818       0.00000000       0.00000000        0
Be       9.73676534       5.18600000      22.17996886       0.00000000       0.00000000        0
F        9.73676534       5.18600000      23.97996886       0.00000000       0.00000000        0
Be       9.73676534       8.39843069      22.17996886       0.00000000       0.00000000        0
F        9.73676534       8.39843069      23.97996886       0.00000000       0.00000000        0
N       11.35955956      10.99143069      10.00000000       0.00000000      -1.00000000       10
Ga      11.35955956      12.96500000      10.00000000       0.00000000      -1.00000000       10
Ga       9.73676534      10.37200000      10.93692068       0.00000000      -1.00000000        9
N        9.73676534      13.58443069      10.93692068       0.00000000      -1.00000000        9
N        9.73676534      10.99143069      12.81076204       0.00000000       0.00000000        8
Ga       9.73676534      12.96500000      12.81076204       0.00000000       0.00000000        8
Ga      11.35955956      10.37200000      13.74768273       0.00000000       0.00000000        7
N       11.35955956      13.58443069      13.74768273       0.00000000       0.00000000        7
N       11.35955956      10.99143069      15.62152409       0.00000000       0.00000000        6
Ga      11.35955956      12.96500000      15.62152409       0.00000000       0.00000000        6
Ga       9.73676534      10.37200000      16.55844477       0.00000000       0.00000000        5
N        9.73676534      13.58443069      16.55844477       0.00000000       0.00000000        5
N        9.73676534      10.99143069      18.43228613       0.00000000       0.00000000        4
Ga       9.73676534      12.96500000      18.43228613       0.00000000       0.00000000        4
Ga      11.35955956      10.37200000      19.36920681       0.00000000       0.00000000        3
N       11.35955956      13.58443069      19.36920681       0.00000000       0.00000000        3
N       11.35955956      10.99143069      21.24304818       0.00000000       1.00000000        2
Ga      11.35955956      12.96500000      21.24304818       0.00000000       1.00000000        2
Ga       9.73676534      10.37200000      22.17996886       0.00000000       1.00000000        1
N        9.73676534      13.58443069      22.17996886       0.00000000       1.00000000        1
Cl      11.35955956      11.99143069      21.54304818       0.00000000       0.00000000        0
Be       9.73676534      10.37200000      22.17996886       0.00000000       0.00000000        0
F        9.73676534      10.37200000      23.97996886       0.00000000       0.00000000        0
Be       9.73676534      13.58443069      22.17996886       0.00000000       0.00000000        0
F        9.73676534      13.58443069      23.97996886       0.00000000       0.00000000        0
N       11.35955956      16.17743069      10.00000000       0.00000000      -1.00000000       10
Ga      11.35955956      18.15100000      10.00000000       0.00000000      -1.00000000       10
Ga       9.73676534      15.55800000      10.93692068       0.00000000      -1.00000000        9
N        9.73676534      18.77043069      10.93692068       0.00000000      -1.00000000        9
N        9.73676534      16.17743069      12.81076204       0.00000000       0.00000000        8
Ga       9.73676534      18.15100000      12.81076204       0.00000000       0.00000000        8
Ga      11.35955956      15.55800000      13.74768273       0.00000000       0.00000000        7
N       11.35955956      18.77043069      13.74768273       0.00000000       0.00000000        7
N       11.35955956      16.17743069      15.62152409       0.00000000       0.00000000        6
Ga      11.35955956      18.15100000      15.62152409       0.00000000       0.00000000        6
Ga       9.73676534      15.55800000      16.55844477       0.00000000       0.00000000        5
N        9.73676534      18.77043069      16.55844477       0.00000000       0.00000000        5
N        9.73676534      16.17743069      18.43228613       0.00000000       0.00000000        4
Ga       9.73676534      18.15100000      18.43228613       0.00000000       0.00000000        4
Ga      11.35955956      15.55800000      19.36920681       0.00000000       0.00000000        3
N       11.35955956      18.77043069      19.36920681       0.00000000       0.00000000        3
N       11.35955956      16.17743069      21.24304818       0.00000000       1.00000000        2
Ga      11.35955956      18.15100000      21.24304818       0.00000000       1.00000000        2
Ga       9.73676534      15.55800000      22.17996886       0.00000000       1.00000000        1
N        9.73676534      18.77043069      22.17996886       0.00000000       1.00000000        1
Cl      11.35955956      17.17743069      21.54304818       0.00000000       0.00000000        0
Be       9.73676534      15.55800000      22.17996886       0.00000000       0.00000000        0
F        9.73676534      15.55800000      23.97996886       0.00000000       0.00000000        0
Be       9.73676534      18.77043069      22.17996886       0.00000000       0.00000000        0
F        9.73676534      18.77043069      23.97996886       0.00000000       0.00000000        0
N       14.60514800       0.61943069      10.00000000       0.00000000      -1.00000000       10
Ga      14.60514800       2.59300000      10.00000000       0.00000000      -1.00000000       10
Ga      12.98235378       0.00000000      10.93692068       0.00000000      -1.00000000        9
N       12.98235378       3.21243069      10.93692068       0.00000000      -1.00000000        9
N       12.98235378       0.61943069      12.81076204       0.00000000       0.00000000        8
Ga      12.98235378       2.59300000      12.81076204       0.00000000       0.00000000        8
Ga      14.60514800       0.00000000      13.74768273       0.00000000       0.00000000        7
N       14.60514800       3.21243069      13.74768273       0.00000000       0.00000000        7
N       14.60514800       0.61943069      15.62152409       0.00000000       0.00000000        6
Ga      14.60514800       2.59300000      15.62152409       0.00000000       0.00000000        6
Ga      12.98235378       0.00000000      16.55844477       0.00000000       0.00000000        5
N       12.98235378       3.21243069      16.55844477       0.00000000       0.00000000        5
N       12.98235378       0.61943069      18.43228613       0.00000000       0.00000000        4
Ga      12.98235378       2.59300000      18.43228613       0.00000000       0.00000000        4
Ga      14.60514800       0.00000000      19.36920681       0.00000000       0.00000000        3
N       14.60514800       3.21243069      19.36920681       0.00000000       0.00000000        3
N       14.60514800       0.61943069      21.24304818       0.00000000       1.00000000        2
Ga      14.60514800       2.59300000      21.24304818       0.00000000       1.00000000        2
Ga      12.98235378       0.00000000      22.17996886       0.00000000       1.00000000        1
N       12.98235378       3.21243069      22.17996886       0.00000000       1.00000000        1
Cl      14.60514800       1.61943069      21.54304818       0.00000000       0.00000000        0
Be      12.98235378       0.00000000      22.17996886       0.00000000       0.00000000        0
F       12.98235378       0.00000000      23.97996886       0.00000000       0.00000000        0
Be      12.98235378       3.21243069      22.17996886       0.00000000       0.00000000        0
F       12.98235378       3.21243069      23.97996886       0.00000000       0.00000000        0
N       14.60514800       5.80543069      10.00000000       0.00000000      -1.00000000       10
Ga      14.60514800       7.77900000      10.00000000       0.00000000      -1.00000000       10
Ga      12.98235378       5.18600000      10.93692068       0.00000000      -1.00000000        9
N       12.98235378       8.39843069      10.93692068       0.00000000      -1.00000000        9
N       12.98235378       5.80543069      12.81076204       0.00000000       0.00000000        8
Ga      12.98235378       7.77900000      12.81076204       0.00000000       0.00000000        8
Ga      14.60514800       5.18600000      13.74768273       0.00000000       0.00000000        7
N       14.60514800       8.39843069      13.74768273       0.00000000       0.00000000        7
N       14.60514800       5.80543069      15.62152409       0.00000000       0.00000000        6
Ga      14.60514800       7.77900000      15.62152409       0.00000000       0.00000000        6
Ga      12.98235378       5.18600000      16.55844477       0.00000000       0.00000000        5
N       12.98235378       8.39843069      16.55844477       0.00000000       0.00000000        5
N       12.98235378       5.80543069      18.43228613       0.00000000       0.00000000        4
Ga      12.98235378       7.77900000      18.43228613       0.00000000       0.00000000        4
Ga      14.60514800       5.18600000      19.36920681       0.00000000       0.00000000        3
N       14.60514800       8.39843069      19.36920681       0.00000000       0.00000000        3
N       14.60514800       5.80543069      21.24304818       0.00000000       1.00000000        2
Ga      14.60514800       7.77900000      21.24304818       0.00000000       1.00000000        2
Ga      12.98235378       5.18600000      22.17996886       0.00000000       1.00000000        1
N       12.98235378       8.39843069      22.17996886       0.00000000       1.00000000        1
Cl      14.60514800       6.80543069      21.54304818       0.00000000       0.00000000        0
Be      12.98235378       5.18600000      22.17996886       0.00000000       0.00000000        0
F       12.98235378       5.18600000      23.97996886       0.00000000       0.00000000        0
Be      12.98235378       8.39843069      22.17996886       0.00000000       0.00000000        0
F       12.98235378       8.39843069      23.97996886       0.00000000       0.00000000        0
N       14.60514800      10.99143069      10.00000000       0.00000000      -1.00000000       10
Ga      14.60514800      12.96500000      10.00000000       0.00000000      -1.00000000       10
Ga      12.98235378      10.37200000      10.93692068       0.00000000      -1.00000000        9
N       12.98235378      13.58443069      10.93692068       0.00000000      -1.00000000        9
N       12.98235378      10.99143069      12.81076204       0.00000000       0.00000000        8
Ga      12.98235378      12.96500000      12.81076204       0.00000000       0.00000000        8
Ga      14.60514800      10.37200000      13.74768273       0.00000000       0.00000000        7
N       14.60514800      13.58443069      13.74768273       0.00000000       0.00000000        7
N       14.60514800      10.99143069      15.62152409       0.00000000       0.00000000        6
Ga      14.60514800      12.96500000      15.62152409       0.00000000       0.00000000        6
Ga      12.98235378      10.37200000      16.55844477       0.00000000       0.00000000        5
N       12.98235378      13.58443069      16.55844477       0.00000000       0.00000000        5
N       12.98235378      10.99143069      18.43228613       0.00000000       0.00000000        4
Ga      12.98235378      12.96500000      18.43228613       0.00000000       0.00000000        4
Ga      14.60514800      10.37200000      19.36920681       0.00000000       0.00000000        3
N       14.60514800      13.58443069      19.36920681       0.00000000       0.00000000        3
N       14.60514800      10.99143069      21.24304818       0.00000000       1.00000000        2
Ga      14.60514800      12.96500000      21.24304818       0.00000000       1.00000000        2
Ga      12.98235378      10.37200000      22.17996886       0.00000000       1.00000000        1
N       12.98235378      13.58443069      22.17996886       0.00000000       1.00000000        1
Cl      14.60514800      11.99143069      21.54304818       0.00000000       0.00000000        0
Be      12.98235378      10.37200000      22.17996886       0.00000000       0.00000000        0
F       12.98235378      10.37200000      23.97996886       0.00000000       0.00000000        0
Be      12.98235378      13.58443069      22.17996886       0.00000000       0.00000000        0
F       12.98235378      13.58443069      23.97996886       0.00000000       0.00000000        0
N       14.60514800      16.17743069      10.00000000       0.00000000      -1.00000000       10
Ga      14.60514800      18.15100000      10.00000000       0.00000000      -1.00000000       10
Ga      12.98235378      15.55800000      10.93692068       0.00000000      -1.00000000        9
N       12.98235378      18.77043069      10.93692068       0.00000000      -1.00000000        9
N       12.98235378      16.17743069      12.81076204       0.00000000       0.00000000        8
Ga      12.98235378      18.15100000      12.81076204       0.00000000       0.00000000        8
Ga      14.60514800      15.55800000      13.74768273       0.00000000       0.00000000        7
N       14.60514800      18.77043069      13.74768273       0.00000000       0.00000000        7
N       14.60514800      16.17743069      15.62152409       0.00000000       0.00000000        6
Ga      14.60514800      18.15100000      15.62152409       0.00000000       0.00000000        6
Ga      12.98235378      15.55800000      16.55844477       0.00000000       0.00000000        5
N       12.98235378      18.77043069      16.55844477       0.00000000       0.00000000        5
N       12.98235378      16.17743069      18.43228613       0.00000000       0.00000000        4
Ga      12.98235378      18.15100000      18.43228613       0.00000000       0.00000000        4
Ga      14.60514800      15.55800000      19.36920681       0.00000000       0.00000000        3
N       14.60514800      18.77043069      19.36920681       0.00000000       0.00000000        3
N       14.60514800      16.17743069      21.24304818       0.00000000       1.00000000        2
Ga      14.60514800      18.15100000      21.24304818       0.00000000       1.00000000        2
Ga      12.98235378      15.55800000      22.17996886       0.00000000       1.00000000        1
N       12.98235378      18.77043069      22.17996886       0.00000000       1.00000000        1
Cl      14.60514800      17.17743069      21.54304818       0.00000000       0.00000000        0
Be      12.98235378      15.55800000      22.17996886       0.00000000       0.00000000        0
F       12.98235378      15.55800000      23.97996886       0.00000000       0.00000000        0
Be      12.98235378      18.77043069      22.17996886       0.00000000       0.00000000        0
F       12.98235378      18.77043069      23.97996886       0.00000000       0.00000000        0
N       17.85073645       0.61943069      10.00000000       0.00000000      -1.00000000       10
Ga      17.85073645       2.59300000      10.00000000       0.00000000      -1.00000000       10
Ga      16.22794223       0.00000000      10.93692068       0.00000000      -1.00000000        9
N       16.22794223       3.21243069      10.93692068       0.00000000      -1.00000000        9
N       16.22794223       0.61943069      12.81076204       0.00000000       0.00000000        8
Ga      16.22794223       2.59300000      12.81076204       0.00000000       0.00000000        8
Ga      17.85073645       0.00000000      13.74768273       0.00000000       0.00000000        7
N       17.85073645       3.21243069      13.74768273       0.00000000       0.00000000        7
N       17.85073645       0.61943069      15.62152409       0.00000000       0.00000000        6
Ga      17.85073645       2.59300000      15.62152409       0.00000000       0.00000000        6
Ga      16.22794223       0.00000000      16.55844477       0.00000000       0.00000000        5
N       16.22794223       3.21243069      16.55844477       0.00000000       0.00000000        5
N       16.22794223       0.61943069      18.43228613       0.00000000       0.00000000        4
Ga      16.22794223       2.59300000      18.43228613       0.00000000       0.00000000        4
Ga      17.85073645       0.00000000      19.36920681       0.00000000       0.00000000        3
N       17.85073645       3.21243069      19.36920681       0.00000000       0.00000000        3
N       17.85073645       0.61943069      21.24304818       0.00000000       1.00000000        2
Ga      17.85073645       2.59300000      21.24304818       0.00000000       1.00000000        2
Ga      16.22794223       0.00000000      22.17996886       0.00000000       1.00000000        1
N       16.22794223       3.21243069      22.17996886       0.00000000       1.00000000        1
Cl      17.85073645       1.61943069      21.54304818       0.00000000       0.00000000        0
Be      16.22794223       0.00000000      22.17996886       0.00000000       0.00000000        0
F       16.22794223       0.00000000      23.97996886       0.00000000       0.00000000        0
Be      16.22794223       3.21243069      22.17996886       0.00000000       0.00000000        0
F       16.22794223       3.21243069      23.97996886       0.00000000       0.00000000        0
N       17.85073645       5.80543069      10.00000000       0.00000000      -1.00000000       10
Ga      17.85073645       7.77900000      10.00000000       0.00000000      -1.00000000       10
Ga      16.22794223       5.18600000      10.93692068       0.00000000      -1.00000000        9
N       16.22794223       8.39843069      10.93692068       0.00000000      -1.00000000        9
N       16.22794223       5.80543069      12.81076204       0.00000000       0.00000000        8
Ga      16.22794223       7.77900000      12.81076204       0.00000000       0.00000000        8
Ga      17.85073645       5.18600000      13.74768273       0.00000000       0.00000000        7
N       17.85073645       8.39843069      13.74768273       0.00000000       0.00000000        7
N       17.85073645       5.80543069      15.62152409       0.00000000       0.00000000        6
Ga      17.85073645       7.77900000      15.62152409       0.00000000       0.00000000        6
Ga      16.22794223       5.18600000      16.55844477       0.00000000       0.00000000        5
N       16.22794223       8.39843069      16.55844477       0.00000000       0.00000000        5
N       16.22794223       5.80543069      18.43228613       0.00000000       0.00000000        4
Ga      16.22794223       7.77900000      18.43228613       0.00000000       0.00000000        4
Ga      17.85073645       5.18600000      19.36920681       0.00000000       0.00000000        3
N       17.85073645       8.39843069      19.36920681       0.00000000       0.00000000        3
N       17.85073645       5.80543069      21.24304818       0.00000000       1.00000000        2
Ga      17.85073645       7.77900000      21.24304818       0.00000000       1.00000000        2
Ga      16.22794223       5.18600000      22.17996886       0.00000000       1.00000000        1
N       16.22794223       8.39843069      22.17996886       0.00000000       1.00000000        1
Cl      17.85073645       6.80543069      21.54304818       0.00000000       0.00000000        0
Be      16.22794223       5.18600000      22.17996886       0.00000000       0.00000000        0
F       16.22794223       5.18600000      23.97996886       0.00000000       0.00000000        0
Be      16.22794223       8.39843069      22.17996886       0.00000000       0.00000000        0
F       16.22794223       8.39843069      23.97996886       0.00000000       0.00000000        0
N       17.85073645      10.99143069      10.00000000       0.00000000      -1.00000000       10
Ga      17.85073645      12.96500000      10.00000000       0.00000000      -1.00000000       10
Ga      16.22794223      10.37200000      10.93692068       0.00000000      -1.00000000        9
N       16.22794223      13.58443069      10.93692068       0.00000000      -1.00000000        9
N       16.22794223      10.99143069      12.81076204       0.00000000       0.00000000        8
Ga      16.22794223      12.96500000      12.81076204       0.00000000       0.00000000        8
Ga      17.85073645      10.37200000      13.74768273       0.00000000       0.00000000        7
N       17.85073645      13.58443069      13.74768273       0.00000000       0.00000000        7
N       17.85073645      10.99143069      15.62152409       0.00000000       0.00000000        6
Ga      17.85073645      12.96500000      15.62152409       0.00000000       0.00000000        6
Ga      16.22794223      10.37200000      16.55844477       0.00000000       0.00000000        5
N       16.22794223      13.58443069      16.55844477       0.00000000       0.00000000        5
N       16.22794223      10.99143069      18.43228613       0.00000000       0.00000000        4
Ga      16.22794223      12.96500000      18.43228613       0.00000000       0.00000000        4
Ga      17.85073645      10.37200000      19.36920681       0.00000000       0.00000000        3
N       17.85073645      13.58443069      19.36920681       0.00000000       0.00000000        3
N       17.85073645      10.99143069      21.24304818       0.00000000       1.00000000        2
Ga      17.85073645      12.96500000      21.24304818       0.00000000       1.00000000        2
Ga      16.22794223      10.37200000      22.17996886       0.00000000       1.00000000        1
N       16.22794223      13.58443069      22.17996886       0.00000000       1.00000000        1
Cl      17.85073645      11.99143069      21.54304818       0.00000000       0.00000000        0
Be      16.22794223      10.37200000      22.17996886       0.00000000       0.00000000        0
F       16.22794223      10.37200000      23.97996886       0.00000000       0.00000000        0
Be      16.22794223      13.58443069      22.17996886       0.00000000       0.00000000        0
F       16.22794223      13.58443069      23.97996886       0.00000000       0.00000000        0
N       17.85073645      16.17743069      10.00000000       0.00000000      -1.00000000       10
Ga      17.85073645      18.15100000      10.00000000       0.00000000      -1.00000000       10
Ga      16.22794223      15.55800000      10.93692068       0.00000000      -1.00000000        9
N       16.22794223      18.77043069      10.93692068       0.00000000      -1.00000000        9
N       16.22794223      16.17743069      12.81076204       0.00000000       0.00000000        8
Ga      16.22794223      18.15100000      12.81076204       0.00000000       0.00000000        8
Ga      17.85073645      15.55800000      13.74768273       0.00000000       0.00000000        7
N       17.85073645      18.77043069      13.74768273       0.00000000       0.00000000        7
N       17.85073645      16.17743069      15.62152409       0.00000000       0.00000000        6
Ga      17.85073645      18.15100000      15.62152409       0.00000000       0.00000000        6
Ga      16.22794223      15.55800000      16.55844477       0.00000000       0.00000000        5
N       16.22794223      18.77043069      16.55844477       0.00000000       0.00000000        5
N       16.22794223      16.17743069      18.43228613       0.00000000       0.00000000        4
Ga      16.22794223      18.15100000      18.43228613       0.00000000       0.00000000        4
Ga      17.85073645      15.55800000      19.36920681       0.00000000       0.00000000        3
N       17.85073645      18.77043069      19.36920681       0.00000000       0.00000000        3
N       17.85073645      16.17743069      21.24304818       0.00000000       1.00000000        2
Ga      17.85073645      18.15100000      21.24304818       0.00000000       1.00000000        2
Ga      16.22794223      15.55800000      22.17996886       0.00000000       1.00000000        1
N       16.22794223      18.77043069      22.17996886       0.00000000       1.00000000        1
Cl      17.85073645      17.17743069      21.54304818       0.00000000       0.00000000        0
Be      16.22794223      15.55800000      22.17996886       0.00000000       0.00000000        0
F       16.22794223      15.55800000      23.97996886       0.00000000       0.00000000        0
Be      16.22794223      18.77043069      22.17996886       0.00000000       0.00000000        0
F       16.22794223      18.77043069      23.97996886       0.00000000       0.00000000        0
C        9.40429563      16.72485963      24.64309050       0.00000000       0.00000000        0
C        9.89307181      18.16690070      24.64807772       0.00000000       0.00000000        0
C       10.16394055      18.00459168      23.16229563       0.00000000       0.00000000        0
C        9.13309298      16.89772034      23.15878429       0.00000000       0.00000000        0
H       10.27606026      16.04519288      24.78546779       0.00000000       0.00000000        0
H        8.54053571      16.45729970      25.28706034       0.00000000       0.00000000        0
H        9.02127916      18.84540635      24.79490602       0.00000000       0.00000000        0
H       10.75672342      18.42941507      25.29446861       0.00000000       0.00000000        0
H       10.02984936      18.86695728      22.47580869       0.00000000       0.00000000        0
H        9.26704936      16.03987748      22.46642187       0.00000000       0.00000000        0
X       11.43730275      17.45147357      22.98171585       0.00000000       0.00000000        0
X        7.85951373      17.45147357      22.98171585       0.00000000       0.00000000        0
