485
Properties=species:S:1:pos:R:3 i=106 E=-20306.8894860891 pbc="F F F"
N        2.46743676       1.60818710       7.72626287
Ga       2.50046878       3.48246838       7.72005825
Ga       0.83459408       0.95015246       8.56647629
N        0.83578185       4.19847348       8.49979503
N        0.83444963       1.60124235      10.48376966
Ga       0.83464271       3.58034359      10.47703447
Ga       2.49970239       0.94712380      11.33506262
N        2.46848428       4.18455657      11.40447592
N        2.47353683       1.59456914      13.26174478
Ga       2.50016143       3.58089490      13.33287583
Ga       0.83498249       0.94615627      14.19032337
N        0.83680479       4.17274965      14.25390116
N        0.84344396       1.59878510      16.11825918
Ga       0.83473589       3.58225212      16.18754052
Ga       2.49949151       0.94527630      17.04571072
N        2.47253833       4.19816857      17.04950271
N        2.47182912       1.66275809      18.96408715
Ga       2.50086232       3.58932548      18.95750883
Ga       0.83382184       0.93762561      19.70944058
N        0.83737016       4.25922825      19.71977078
N        2.46734455       6.79420080       7.72617916
Ga       2.50088295       8.66837574       7.72004215
Ga       0.83463223       6.13612578       8.56649743
N        0.83622770       9.38448062       8.50332041
N        0.83555365       6.78684420      10.48402657
Ga       0.83503784       8.76580608      10.47692043
Ga       2.49968045       6.13304997      11.33503755
N        2.46994356       9.37117724      11.40738296
N        2.47256950       6.78186510      13.26712512
Ga       2.50060356       8.76690674      13.33294445
Ga       0.83469042       6.13228418      14.19125196
N        0.84114600       9.35435278      14.26557747
N        0.84056439       6.78617779      16.15887892
Ga       0.83490256       8.76791159      16.18779265
Ga       2.50037173       6.13107123      17.04492946
N        2.48706125       9.38149736      17.08778839
N        2.47430821       6.86298038      18.98854912
Ga       2.40672130       8.77357320      18.95580835
Ga       0.83396756       6.12290510      19.71076896
N        0.82684237       9.43715773      19.80200999
N        2.46706661      11.97970050       7.72403494
Ga       2.50082447      13.85430006       7.71997145
Ga       0.83474958      11.32208246       8.56584416
N        0.83625888      14.56883782       8.50380385
N        0.86171249      11.97522945      10.48172166
Ga       0.83488592      13.95303241      10.47697777
Ga       2.50134932      11.31894621      11.33631562
N        2.47002933      14.55561497      11.40448546
N        2.47112589      11.96453022      13.26560534
Ga       2.50054547      13.95298990      13.33298106
Ga       0.83508495      11.31835455      14.19170173
N        0.83588072      14.54133138      14.25419841
N        0.84043281      11.96302184      16.15952910
Ga       0.83448887      13.95349131      16.18706897
Ga       2.50016103      11.31787711      17.04429722
N        2.46014421      14.55861573      17.04795584
N        2.47676017      12.00232496      18.98221226
Ga       2.41365583      13.96128228      18.95706610
Ga       0.83311458      11.30958501      19.71117873
N        0.80916028      14.62181372      19.75426344
N        2.46679779      17.16576813       7.72426288
Ga       2.50043033      19.04041753       7.71999233
Ga       0.83453842      16.50815377       8.56646335
N        0.83584322      19.75661070       8.50038304
N        0.83502518      17.15881459      10.48373501
Ga       0.83462998      19.13832067      10.47699587
Ga       2.49958223      16.50503893      11.33624284
N        2.46890419      19.74146984      11.40347162
N        2.47130108      17.15158004      13.26314655
Ga       2.50020446      19.13891662      13.33296106
Ga       0.83476797      16.50408477      14.19061492
N        0.83584123      19.72762420      14.25225341
N        0.86093528      17.15405461      16.13738809
Ga       0.83497611      19.14024859      16.18754679
Ga       2.50157177      16.50287213      17.04508940
N        2.47109725      19.75236315      17.04642542
N        2.46570411      17.21454908      18.96462752
Ga       2.50095889      19.14745345      18.95757402
Ga       0.83471060      16.49619184      19.71080789
N        0.83585291      19.81120974      19.72107249
N        5.69202153       1.60810701       7.72071458
Ga       5.65796306       3.48258898       7.72003982
Ga       4.08052540       0.95083294       8.56677920
N        4.07909146       4.21597418       8.55188607
N        4.09059124       1.61248091      10.47602012
Ga       4.08035805       3.58033853      10.47763920
Ga       5.65835904       0.94727445      11.42995324
N        5.68766877       4.18459418      11.41827102
N        5.68676511       1.60689330      13.30876585
Ga       5.65867818       3.58143574      13.33350597
Ga       4.07900869       0.94638027      14.19221493
N        4.07893796       4.18901698      14.27954800
N        4.07709966       1.60859970      16.10861474
Ga       4.08008639       3.58168193      16.18737345
Ga       5.65808657       0.94493880      17.04753218
N        5.68525943       4.19800139      17.04895559
N        5.68475793       1.65986931      18.96282829
Ga       5.65702480       3.58911514      18.95751804
Ga       4.07997781       0.93739251      19.71202925
N        4.07691078       4.26979145      19.81177767
N        5.69133529       6.79392771       7.72103922
Ga       5.65720418       8.66842674       7.71994622
Ga       4.08051090       6.13678554       8.56679068
N        4.07872416       9.40199858       8.55267194
N        4.08977275       6.79798586      10.47673561
Ga       4.08024279       8.76593676      10.47749524
Ga       5.65837529       6.13320662      11.42990529
N        5.68695364       9.36969725      11.40901098
N        5.68440000       6.79329358      13.30923612
Ga       5.65793335       8.76809457      13.33322910
Ga       4.07898660       6.13240638      14.19210516
N        4.07737131       9.37061709      14.28844408
N        4.07654485       6.79640497      16.11469627
Ga       4.08005375       8.76707314      16.18747949
Ga       5.65771561       6.13079631      17.04644250
N        5.66795827       9.37988604      17.08392619
N        5.67890502       6.85921054      18.97748657
Ga       5.75385674       8.77353038      18.95580639
Ga       4.08012282       6.12219164      19.71169842
N        5.69121184      11.98022523       7.72404710
Ga       5.65731179      13.85453299       7.71999834
Ga       4.08016945      11.32283236       8.56620868
N        4.07876837      14.58828563       8.55104001
N        4.08012376      11.98830219      10.46204328
Ga       4.08016071      13.95247470      10.47740030
Ga       5.66067754      11.31906763      11.33591204
N        5.68804831      14.55695580      11.40309923
N        5.68130983      11.96493563      13.25854677
Ga       5.65821134      13.95285934      13.33305914
Ga       4.08016749      11.31863709      14.19081660
N        4.07794303      14.55518032      14.28172134
N        4.07536760      11.97389406      16.11328712
Ga       4.08014488      13.95393829      16.18830158
Ga       5.65943004      11.31802317      17.04393100
N        5.69514072      14.55932813      17.04653693
N        5.66985225      12.00067487      18.97531932
Ga       5.74531214      13.96108262      18.95702666
Ga       4.08014856      11.31774851      19.71222339
N        4.07789259      14.61733891      19.72633061
N        5.69221086      17.16682116       7.72345269
Ga       5.65796774      19.04076200       7.72007174
Ga       4.08009307      16.50878823       8.56609445
N        4.07909568      19.77403998       8.55090590
N        4.07918397      17.17516543      10.46211056
Ga       4.08025992      19.13887405      10.47749677
Ga       5.65888353      16.50482637      11.33609661
N        5.68803130      19.74221941      11.41442469
N        5.68524322      17.15142063      13.26187033
Ga       5.65868987      19.13827660      13.33335227
Ga       4.08017186      16.50457642      14.19104703
N        4.07900516      19.74485229      14.27837751
N        4.07996664      17.16257951      16.10778674
Ga       4.08016224      19.13977263      16.18743327
Ga       5.66025982      16.50289730      17.04510851
N        5.68689540      19.75328339      17.04658369
N        5.68944503      17.21667320      18.96408506
Ga       5.65692665      19.14734051      18.95752794
Ga       4.08018597      16.49402646      19.71207749
N        4.07759594      19.81899873      19.81280295
N        8.93922007       1.60602924       7.73030367
Ga       8.91005948       3.48331613       7.72029507
Ga       7.32437070       0.95022388       8.56677824
N        7.29590956       4.20019400       8.51061686
N        7.27753151       1.60058551      10.49384030
Ga       7.32422559       3.58028854      10.47724129
Ga       8.90726230       0.94750535      11.33285643
N        8.93662431       4.18322614      11.39692836
N        8.93268365       1.59756273      13.26696131
Ga       8.91127509       3.58150509      13.33332176
Ga       7.32515179       0.94597978      14.19129136
N        7.29683596       4.17487681      14.25463314
N        7.27701677       1.60054745      16.11304775
Ga       7.32420559       3.58194331      16.18725265
Ga       8.90583514       0.94470093      16.95049380
N        8.93374768       4.19295100      17.03004464
N        8.93385981       1.65191699      18.94288988
Ga       8.90953040       3.58907306      18.95691848
Ga       7.32570283       0.93782205      19.70992857
N        7.28647012       4.25583318      19.73272452
N        8.93846317       6.79160709       7.73085337
Ga       8.90872143       8.66876959       7.72009832
Ga       7.32435436       6.13618229       8.56680626
N        7.29570375       9.38653502       8.50687565
N        7.27794334       6.78612931      10.49424818
Ga       7.32469034       8.76647500      10.47720551
Ga       8.90783931       6.13349244      11.33287036
N        8.94294201       9.36715827      11.39563599
N        8.92979580       6.78219351      13.26711800
Ga       8.90978626       8.76761408      13.33342716
Ga       7.32503277       6.13202537      14.19122930
N        7.28849089       9.35624069      14.26009378
N        7.26789762       6.78615921      16.11601695
Ga       7.32434548       8.76821942      16.18745603
Ga       8.90575147       6.13066138      16.95103840
N        8.92390218       9.37130646      17.03369379
N        8.92695473       6.82541838      18.93689156
Ga       8.99428079       8.77367018      18.95639074
Ga       7.32632037       6.12354772      19.71019637
N        7.32385717       9.43213520      19.80063925
N        8.92679280      11.98294816       7.70643489
Ga       8.90866872      13.85566312       7.72003883
Ga       7.32466903      11.32243675       8.56667803
N        7.29551303      14.57358611       8.50539147
N        7.32243517      11.97228337      10.48008277
Ga       7.32479303      13.95168989      10.47705917
Ga       8.99030190      11.31937749      11.33484669
N        8.93820481      14.55682963      11.39259902
N        8.93936980      11.96431371      13.25878326
Ga       8.91014905      13.95330608      13.33327875
Ga       7.32453403      11.31839026      14.19057977
N        7.29742147      14.54334655      14.25199470
N        7.27636298      11.96318963      16.11548819
Ga       7.32582279      13.95404004      16.18750258
Ga       8.90712522      11.31771992      17.04515349
N        8.95008855      14.57146702      17.03841664
N        8.90942717      12.01879978      18.89524633
Ga       8.99415621      13.95839051      18.95674044
N        7.34568990      14.62616021      19.73867348
N        8.94045420      17.16498664       7.72836322
Ga       8.91020782      19.04131355       7.72022411
Ga       7.32494027      16.50821280       8.56612769
N        7.29612580      19.75872287       8.50902935
N        7.29579961      17.16213167      10.47953491
Ga       7.32438566      19.13873724      10.47713632
Ga       8.90776557      16.50536737      11.33545931
N        8.93653475      19.74159455      11.39620605
N        8.93544085      17.15314007      13.26315279
Ga       8.91100244      19.13928345      13.33341654
Ga       7.32483815      16.50437965      14.19169703
N        7.29755102      19.73342515      14.25247993
N        7.32096359      17.15355377      16.13515932
Ga       7.32468329      19.13893025      16.18746151
Ga       8.98950854      16.50336240      17.04488529
N        8.93866624      19.75620050      17.03273257
N        8.94190057      17.22288378      18.96746589
Ga       8.90936537      19.14828973      18.95695734
Ga       7.32566022      16.49573798      19.71033854
N        7.29254674      19.81323610      19.73284895
N       12.20430484       1.60814275       7.72623458
Ga      12.23723395       3.48248433       7.72004192
Ga      10.57135219       0.95017422       8.56668022
N       10.57214219       4.19823849       8.49891855
N       10.57061014       1.60124635      10.48346607
Ga      10.57140111       3.58034820      10.47702908
Ga      12.23647574       0.94713647      11.33508971
N       12.20512488       4.18383789      11.40144073
N       12.21056127       1.59396288      13.26015403
Ga      12.23693906       3.58092888      13.33284914
Ga      10.57172187       0.94620023      14.19031373
N       10.57150907       4.17059148      14.24718521
N       10.57785642       1.59756874      16.11583773
Ga      10.57158204       3.58209231      16.18740926
Ga      12.23625949       0.94537490      17.04572658
N       12.20661735       4.19076517      17.04389809
N       12.20864327       1.65933660      18.96098333
Ga      12.23763862       3.58947833      18.95755870
Ga      10.57056055       0.93803742      19.70902864
N       10.56910831       4.24834576      19.72074648
N       12.20505580       6.79392490       7.72671601
Ga      12.23772916       8.66797454       7.71983224
Ga      10.57134780       6.13618408       8.56636046
N       10.57178029       9.38641193       8.48498496
N       10.57103380       6.78725942      10.48209577
Ga      10.57168796       8.76641536      10.47682790
Ga      12.23651113       6.13308891      11.33509868
N       12.20726808       9.36980638      11.39890354
N       12.21110692       6.77828972      13.25866031
Ga      12.23730398       8.76693791      13.33287277
Ga      10.57171766       6.13226485      14.19030415
N       10.56943449       9.35480719      14.23767543
N       10.57527906       6.77963020      16.11278221
Ga      10.57126362       8.76864014      16.18714364
Ga      12.23645725       6.13131586      17.04612258
N       12.20401210       9.37176721      17.02894473
N       12.20787466       6.83073570      18.95551310
Ga      12.14797434       8.77481005      18.95596923
Ga      10.57052507       6.12381925      19.70975322
N       10.56629495       9.40558816      19.71756399
N       12.21881099      11.98431259       7.70344855
Ga      12.23774835      13.85483072       7.71978011
Ga      10.57146102      11.32201359       8.47393628
N       10.57218450      14.56819307       8.49574646
N       10.59651070      11.96604615      10.45634100
Ga      10.57161973      13.95200076      10.47687319
Ga      12.23698058      11.31906205      11.33570630
N       12.20780329      14.55809305      11.39858700
N       12.21198682      11.96597607      13.25406410
Ga      12.23732034      13.95288233      13.33289883
Ga      10.57158568      11.31852487      14.19048060
N       10.57121693      14.54682935      14.23819079
N       10.56780969      11.97081816      16.11221767
Ga      10.57173959      13.95311250      16.18672042
Ga      12.23672190      11.31736038      17.04530220
N       12.19835645      14.57640010      17.03762692
N       12.22304945      12.02207068      18.88493244
Ga      12.14915858      13.95827110      18.95668173
N       10.56961497      14.67276933      19.73927891
N       12.20386646      17.16601483       7.72427177
Ga      12.23719331      19.04043361       7.71998067
Ga      10.57129497      16.50818347       8.56646023
N       10.57233871      19.75702294       8.49941598
N       10.57128462      17.15925914      10.48285655
Ga      10.57139824      19.13831856      10.47698629
Ga      12.23636239      16.50505882      11.33627224
N       12.20583046      19.74208328      11.40149895
N       12.20937820      17.15397691      13.26088638
Ga      12.23697767      19.13891337      13.33294317
Ga      10.57150642      16.50407520      14.19055764
N       10.57172210      19.72905320      14.24884813
N       10.59441646      17.15967437      16.13243553
Ga      10.57172646      19.14028701      16.18753456
Ga      12.23810905      16.50322575      17.04509653
N       12.20789315      19.75453038      17.04484473
N       12.20653356      17.22518753      18.96270284
Ga      12.23777587      19.14768555      18.95757273
Ga      10.57176598      16.49937839      19.70998754
N       10.57057640      19.81264227      19.72075120
N       15.42991841       1.60810901       7.72080360
Ga      15.39473230       3.48261040       7.72003004
Ga      13.81730838       0.95084021       8.56678512
N       13.81645115       4.21571933       8.55080948
N       13.82806656       1.61235214      10.47566820
Ga      13.81714286       3.58035504      10.47762189
Ga      15.39515953       0.94727170      11.42995495
N       15.42635250       4.18441842      11.41723046
N       15.42654680       1.60631178      13.30802604
Ga      15.39549917       3.58142385      13.33354985
Ga      13.81580265       0.94642611      14.19224648
N       13.81698424       4.18617954      14.27662260
N       13.81564731       1.60682821      16.10686452
Ga      13.81685826       3.58177411      16.18746510
Ga      15.39497207       0.94504564      17.04751208
N       15.42829024       4.19217329      17.04608091
N       15.42847847       1.65784316      18.96203595
Ga      15.39408441       3.58941846      18.95753538
Ga      13.81678410       0.93782326      19.71204263
N       13.81765313       4.25822082      19.81300671
N       15.43001634       6.79398091       7.72117657
Ga      15.39475079       8.66857553       7.71999184
Ga      13.81732565       6.13678425       8.56681672
N       13.81575840       9.40251292       8.54936013
N       13.82836732       6.79742710      10.47559749
Ga      13.81705813       8.76600999      10.47752025
Ga      15.39526102       6.13323039      11.42993271
N       15.42913798       9.36930570      11.40539096
N       15.43006759       6.79245424      13.30915232
Ga      15.39553551       8.76819868      13.33339807
Ga      13.81581161       6.13246346      14.19227919
N       13.81880666       9.36906825      14.27402257
N       13.81773872       6.78924901      16.10512611
Ga      13.81681905       8.76797998      16.18793676
Ga      15.39559882       6.13107184      17.04617631
N       15.44055666       9.37803977      17.04427889
N       15.43560894       6.84098963      18.96241708
Ga      15.39527979       8.77559058      18.95770851
Ga      13.81671830       6.12434099      19.71192794
N       13.79503334       9.43842554      19.74259364
N       15.43134836      11.98037453       7.72415560
Ga      15.39476088      13.85468590       7.72001413
Ga      13.81735856      11.32270469       8.56613090
N       13.81605708      14.58783729       8.54947990
N       13.81925045      11.98848555      10.45883135
Ga      13.81694569      13.95248708      10.47742062
Ga      15.39748946      11.31903492      11.33597666
N       15.42808488      14.55709393      11.40120331
N       15.43262736      11.96537620      13.25697176
Ga      15.39547350      13.95280083      13.33315726
Ga      13.81714858      11.31874780      14.19122431
N       13.81735151      14.56021577      14.27579430
N       13.82510132      11.97689251      16.09145841
Ga      13.81642878      13.95339146      16.18819807
Ga      15.39473646      11.31736232      17.04497602
N       15.43499377      14.56671294      17.04484488
N       15.44978614      12.03096194      18.96331176
Ga      15.39493657      13.96145724      18.95769959
Ga      13.81436871      11.31047278      19.71044187
N       13.78821395      14.63365609      19.74357982
N       15.43015291      17.16685963       7.72355210
Ga      15.39472055      19.04076607       7.72007159
Ga      13.81686652      16.50876618       8.56610717
N       13.81633255      19.77416808       8.55011412
N       13.81694604      17.17567806      10.46147595
Ga      13.81703667      19.13887793      10.47749883
Ga      15.39567253      16.50481915      11.33610862
N       15.42628674      19.74222587      11.41377899
N       15.42680416      17.15184217      13.26128341
Ga      15.39542692      19.13827277      13.33336093
Ga      13.81693899      16.50465007      14.19111894
N       13.81680091      19.74575874      14.27681165
N       13.81956127      17.16648785      16.10594875
Ga      13.81691863      19.13977601      16.18747943
Ga      15.39680661      16.50309489      17.04512187
N       15.42733632      19.75397590      17.04580651
N       15.43254057      17.21953482      18.96296386
Ga      15.39408785      19.14740017      18.95751938
Ga      13.81661658      16.49500996      19.71190304
N       13.81636700      19.82045176      19.81267722
N       18.67682668       1.60605205       7.73027087
Ga      18.64683279       3.48329040       7.72029897
Ga      17.06116653       0.95022211       8.56677776
N       17.03392707       4.20048578       8.51069858
N       17.01639839       1.60059240      10.49379742
Ga      17.06104372       3.58029080      10.47725849
Ga      18.64412271       0.94749088      11.33286856
N       18.67523791       4.18300405      11.39840603
N       18.67305734       1.59756418      13.26791326
Ga      18.64792233       3.58152083      13.33335205
Ga      17.06201555       0.94598678      14.19129527
N       17.03725787       4.17427622      14.25453513
N       17.02143988       1.60038065      16.11256034
Ga      17.06132573       3.58233951      16.18738900
Ga      18.64274644       0.94454164      16.95072275
N       18.67846135       4.19302493      17.04022941
N       18.67742769       1.65239959      18.94636495
Ga      18.64691930       3.58839768      18.95696711
Ga      17.06253983       0.93773278      19.70994956
N       17.03767545       4.25691504      19.73206020
N       18.67774100       6.79283652       7.73082204
Ga      18.64690206       8.66937451       7.72027282
Ga      17.06126885       6.13624107       8.56680621
N       17.03436065       9.38590238       8.50852379
N       17.01972897       6.78658691      10.49465240
Ga      17.06166154       8.76651039      10.47724799
Ga      18.64496181       6.13331495      11.33324942
N       18.68725007       9.36855959      11.40076964
N       18.67591315       6.77984604      13.26929657
Ga      18.64806715       8.76727016      13.33351645
Ga      17.06250702       6.13207194      14.19228129
N       17.04225993       9.35737485      14.25712912
N       17.04284979       6.78208219      16.13617972
Ga      17.06185696       8.76779438      16.18751507
Ga      18.64652273       6.13119967      17.04459130
N       18.68764183       9.37848229      17.05182585
N       18.68424572       6.84906540      18.97013439
Ga      18.64059967       8.77567160      18.95814787
Ga      17.06185167       6.12370125      19.71085232
N       17.04172685       9.43882634      19.78925833
N       18.68160337      11.97858949       7.72794538
Ga      18.64700205      13.85529518       7.72018077
Ga      17.06192225      11.32233090       8.56675320
N       17.03416434      14.57404356       8.50533837
N       17.06274545      11.97228802      10.48210067
Ga      17.06162805      13.95170920      10.47704317
Ga      18.72581336      11.31922750      11.33545140
N       18.67782067      14.55448505      11.39741194
N       18.69082056      11.96372058      13.26797761
Ga      18.64792779      13.95333984      13.33341969
Ga      17.06181769      11.31837139      14.19067346
N       17.03937877      14.54198611      14.25443988
N       17.04603338      11.96772788      16.13162038
Ga      17.06179178      13.95436011      16.18751088
Ga      18.64451164      11.31741374      17.04501835
N       18.68546804      14.56257522      17.04661921
N       18.69091878      12.02843499      18.97209765
Ga      18.63993219      13.96175240      18.95757472
Ga      17.06175625      11.30942350      19.71108990
N       17.03433344      14.62689547      19.78451393
N       18.67824288      17.16478882       7.72828630
Ga      18.64695241      19.04130338       7.72022342
Ga      17.06173828      16.50823047       8.56611345
N       17.03384082      19.75857326       8.50938515
N       17.03481494      17.16180721      10.47971396
Ga      17.06117434      19.13874396      10.47714707
Ga      18.64464534      16.50531783      11.33545369
N       18.67448705      19.74105138      11.39759475
N       18.67681214      17.15128653      13.26484433
Ga      18.64778929      19.13926070      13.33342950
Ga      17.06163725      16.50437357      14.19170612
N       17.03670665      19.73291602      14.25281401
N       17.06312861      17.15290989      16.13583824
Ga      17.06145910      19.13895781      16.18747169
Ga      18.72586425      16.50334706      17.04454742
N       18.67907306      19.75397708      17.03356417
N       18.68760746      17.21543794      18.96806273
Ga      18.64697648      19.14806430      18.95687523
Ga      17.06181392      16.49561848      19.71052359
Ga      10.57179202      11.31508342      19.81474712
N       17.03462808      19.81197118      19.73244187
Ga       7.32904440      11.31013481      19.71035716
N        4.07558285       9.41982473      19.89403599
H        7.27284981       9.10058938      20.87001517
C       10.61743827      11.98772674      21.70023902
H        9.67198195      12.46743486      21.98722178
H       11.40575682      12.73906490      21.83810836
H       10.80038675      11.13644976      22.36689339
