11
Properties=species:S:1:pos:R:3 pbc="F F F"
C        1.14090000      -0.01710000      -0.05080000
C        0.63780000      -0.07150000       1.37620000
C        1.14200000       1.13980000       2.12970000
H        0.76600000       0.89970000      -0.55370000
H        0.77710000      -0.90640000      -0.60500000
H       -0.47260000      -0.07610000       1.38180000
H        0.76960000       2.06510000       1.64400000
H        0.77530000       1.10990000       3.17680000
X        2.54090000      -0.00890000      -0.05000000
X        1.11220000      -1.23490000       1.99360000
X        2.54200000       1.14130000       2.12510000
