13
Properties=species:S:1:pos:R:3 pbc="F F F"
C        1.01170000       0.06340000      -0.02980000
C        0.47630000       1.39300000      -0.54020000
C        0.97050000       1.65010000      -1.96010000
C        2.48880000       1.69360000      -1.99030000
H        2.12270000       0.07570000      -0.02930000
H        0.66540000      -0.75990000      -0.68800000
H       -0.63460000       1.38070000      -0.52840000
H        0.82940000       2.20710000       0.12880000
H        0.61940000       0.83720000      -2.63080000
H        0.56630000       2.61570000      -2.33040000
H        2.84330000       1.87700000      -3.02740000
X        0.54780000      -0.15430000       1.27300000
X        2.94070000       2.72200000      -1.15470000
