11
Properties=species:S:1:pos:R:3 pbc="F F F"
C        1.14180000      -0.00960000      -0.04070000
C        0.62390000      -0.85840000       1.10420000
C        1.14340000      -0.30370000       2.41620000
H        0.79130000       1.03880000       0.07200000
H        0.76340000      -0.41030000      -1.00460000
H       -0.48640000      -0.84330000       1.10900000
H        0.97750000      -1.90270000       0.97640000
H        0.79300000       0.74170000       2.54820000
H        0.76630000      -0.91650000       3.26270000
X        2.54150000      -0.03530000      -0.04240000
X        2.54310000      -0.32880000       2.40980000
