13
Properties=species:S:1:pos:R:3 pbc="F F F"
C        1.10160000      -2.38530000       0.42440000
C        0.59470000      -1.05090000       0.92680000
C        1.11060000      -0.81810000       2.33580000
C        0.60650000       0.51270000       2.86170000
H        0.72670000      -2.57100000      -0.60440000
H        0.96750000      -0.24860000       0.25590000
H       -0.51560000      -1.05180000       0.92330000
H        0.74750000      -1.62860000       3.00430000
H        0.95990000       1.33340000       2.20460000
H       -0.50350000       0.51840000       2.87500000
X        2.50160000      -2.37890000       0.41700000
X        2.51050000      -0.81480000       2.32470000
X        1.08960000       0.71360000       4.16020000
