13
Properties=species:S:1:pos:R:3 pbc="F F F"
C        0.91060000      -0.09110000      -0.00990000
C        0.45470000       1.17470000      -0.70910000
C        0.96960000       1.17860000      -2.14380000
C        0.44210000      -0.02300000      -2.92100000
H        0.50980000      -0.98630000      -0.53270000
H       -0.65490000       1.20980000      -0.70610000
H        0.85490000       2.05390000      -0.16200000
H        0.62380000       2.10690000      -2.64940000
H       -0.66880000      -0.02520000      -2.92300000
H        0.80420000       0.02620000      -3.96870000
H        0.81190000      -0.96600000      -2.46750000
X        2.30970000      -0.14190000      -0.00300000
X        2.36920000       1.14810000      -2.13520000
