13
Properties=species:S:1:pos:R:3 pbc="F F F"
C        0.98010000       0.08460000      -0.08860000
C        0.47600000      -1.03280000       0.82040000
C        0.97480000      -0.83730000       2.25080000
C        0.46160000      -1.95900000       3.13280000
H        0.61190000       1.06940000       0.27040000
H        0.61060000      -0.07800000      -1.12280000
H        2.09090000       0.09470000      -0.10400000
H       -0.63630000      -1.03670000       0.80920000
H        0.83990000      -2.00830000       0.42920000
H        2.08580000      -0.84100000       2.26810000
H        0.60570000       0.13100000       2.65120000
H        0.81640000      -2.93990000       2.75200000
X        0.92350000      -1.77160000       4.44100000
