485
Lattice="19.473530671280287 0.0 0.0 0.0 20.744 0.0 0.0 0.0 30.0" Properties=species:S:1:pos:R:3 i=78 E=-20306.8950808396 pbc="T T T"
N        2.43773184       1.60120071       8.93091260
Ga       2.47071051       3.47554830       8.92478129
Ga       0.80482754       0.94320858       9.77123106
N        0.80604014       4.19147448       9.70392863
N        0.80467742       1.59422313      11.68836187
GaPlus       0.80488446       3.57340369      11.68178788
Ga       2.46994515       0.94017478      12.53982771
N        2.43910180       4.17742383      12.60841519
N        2.44433396       1.58736180      14.46608508
Ga       2.47038976       3.57395816      14.53760348
Ga       0.80520496       0.93923999      15.39509122
NMinus        0.80687264       4.16461350      15.45561227
N        0.81333182       1.59107698      17.32210570
Ga       0.80498797       3.57536824      17.39227127
Ga       2.46972257       0.93838681      18.25045807
N        2.44341180       4.18778324      18.25172286
N        2.44290051       1.65474350      20.16822461
Ga       2.47110509       3.58254973      20.16225103
Ga       0.80404514       0.93079520      20.91417922
N        0.80594430       4.24818123      20.92511745
N        2.43779398       6.78720326       8.93075066
Ga       2.47110678       8.66143699       8.92477113
Ga       0.80479051       6.12918801       9.77126545
N        0.80660740       9.37762660       9.70676127
N        0.80587883       6.77981257      11.68828930
Ga       0.80526567       8.75889391      11.68168988
Ga       2.46994880       6.12611296      12.53980882
N        2.44156367       9.36439718      12.61056900
N        2.44494375       6.77442091      14.46998211
Ga       2.47078109       8.76000779      14.53782336
Ga       0.80483859       6.12537930      15.39598381
N        0.80795884       9.34800401      15.45853980
N        0.80795598       6.77511638      17.34895629
Ga       0.80475446       8.76098398      17.39204273
Ga       2.47026024       6.12422706      18.24970987
N        2.44093023       9.37282212      18.25715628
N        2.43768843       6.84250716      20.17106213
Ga       2.38197281       8.76887774      20.16278130
Ga       0.80457233       6.11611345      20.91522654
N        0.77987165       9.43242992      20.98984748
N        2.43751330      11.97284179       8.92871445
Ga       2.47106559      13.84737123       8.92470318
Ga       0.80499176      11.31514856       9.77060325
N        0.80652126      14.56204837       9.70769153
N        0.83208761      11.96844091      11.68604676
Ga       0.80512327      13.94609804      11.68173433
Ga       2.47162435      11.31202691      12.54108676
N        2.44067474      14.54908513      12.60816406
N        2.44373606      11.95809257      14.46861242
Ga       2.47077668      13.94604649      14.53770430
Ga       0.80514792      11.31133910      15.39641224
N        0.80588630      14.53613812      15.45521085
N        0.80803375      11.95838211      17.34911233
Ga       0.80477986      13.94645242      17.39183152
Ga       2.47014931      11.31033651      18.24984211
N        2.43140608      14.55707335      18.24922454
N        2.43364639      12.01981738      20.17269616
Ga       2.38352965      13.95441966      20.16182152
Ga       0.80419891      11.30250834      20.91556190
N        0.77740454      14.62137716      20.95515497
N        2.43707309      17.15887417       8.92896726
Ga       2.47066974      19.03349051       8.92472335
Ga       0.80476975      16.50121227       9.77122010
N        0.80607850      19.74970791       9.70468444
N        0.80527560      17.15204535      11.68831985
Ga       0.80487323      19.13137959      11.68174731
Ga       2.46982347      16.49810538      12.54100641
N        2.43931960      19.73461412      12.60772299
N        2.44215242      17.14510371      14.46749860
Ga       2.47044767      19.13197693      14.53771176
Ga       0.80499303      16.49716296      15.39535566
N        0.80606175      19.72090352      15.45579590
N        0.83048924      17.14832302      17.34075207
Ga       0.80519884      19.13332057      17.39229936
Ga       2.47177098      16.49600142      18.24981712
N        2.44174762      19.74562602      18.25078532
N        2.43725701      17.20930219      20.16903837
Ga       2.47119015      19.14054043      20.16234753
Ga       0.80486328      16.48945637      20.91548880
N        0.80602634      19.80439041      20.92557731
N        5.66239209       1.60115091       8.92538923
Ga       5.62819953       3.47565577       8.92477005
Ga       4.05076325       0.94388774       9.77153372
N        4.04956017       4.20901789       9.75641014
N        4.06110422       1.60550429      11.68071348
Ga       4.05060803       3.57339660      11.68239045
Ga       5.62859860       0.94032705      12.63470495
N        5.65850338       4.17766414      12.62300513
N        5.65785275       1.59992545      14.51358362
Ga       5.62893370       3.57449525      14.53823328
Ga       4.04925992       0.93944326      15.39699524
N        4.05007869       4.18182352      15.48390942
N        4.04850039       1.60116250      17.31305296
Ga       4.05034032       3.57474446      17.39217997
Ga       5.62835779       0.93800381      18.25227608
N        5.65891398       4.19112012      18.25380081
N        5.65765070       1.65318406      20.16780451
Ga       5.62698973       3.58229693      20.16229484
Ga       4.05024344       0.93053483      20.91676364
N        4.05014102       4.26044101      21.01686800
N        5.66207535       6.78706055       8.92570687
Ga       5.62822284       8.66161576       8.92471653
Ga       4.05075095       6.12987100       9.77154319
N        4.04954119       9.39497410       9.75686596
N        4.06060686       6.79098040      11.68122119
Ga       4.05050992       8.75902984      11.68224227
Ga       5.62862617       6.12627446      12.63465612
N        5.65865782       9.36238936      12.61368120
N        5.65702352       6.78634705      14.51416251
Ga       5.62916667       8.76112576      14.53807549
Ga       4.04932281       6.12545555      15.39690580
N        4.05265052       9.36374436      15.49263203
N        4.05165331       6.78934120      17.31895165
Ga       4.05070231       8.76091071      17.39325830
Ga       5.62864755       6.12388131      18.25113108
N        5.68480224       9.37233018      18.28784052
N        5.66932774       6.85076005      20.18426340
Ga       5.62428140       8.76663914      20.16069183
Ga       4.04971675       6.11748328      20.91683525
N        5.66183434      11.97325691       8.92868269
Ga       5.62754776      13.84760115       8.92473806
Ga       4.05040550      11.31582811       9.77094804
N        4.04928503      14.58137835       9.75550530
N        4.05098767      11.98141254      11.66655510
Ga       4.05040934      13.94553568      11.68216171
Ga       5.63092646      11.31211353      12.54067638
N        5.65898820      14.54995959      12.60789499
N        5.65418268      11.95791782      14.46403061
Ga       5.62844958      13.94593115      14.53779165
Ga       4.05048000      11.31182141      15.39567690
N        4.04914807      14.54863237      15.48566712
N        4.05065076      11.96766508      17.31852756
Ga       4.05030546      13.94704824      17.39315153
Ga       5.62974412      11.31110887      18.24878401
N        5.66848578      14.55222949      18.25111374
N        5.68206869      11.99579768      20.18321412
Ga       5.71577155      13.95428638      20.16190267
Ga       4.04918666      11.30318528      20.91667803
N        4.05097769      14.61272200      20.92721888
N        5.66257708      17.15985376       8.92811747
Ga       5.62819146      19.03383217       8.92480691
Ga       4.05033011      16.50184418       9.77085058
N        4.04949189      19.76709989       9.75548687
N        4.04970783      17.16827262      11.66678692
Ga       4.05050146      19.13193233      11.68224470
Ga       5.62912326      16.49788580      12.54085459
N        5.65860129      19.73525818      12.61917672
N        5.65647378      17.14443788      14.46673117
Ga       5.62890440      19.13132833      14.53811281
Ga       4.05040468      16.49764164      15.39583705
N        4.04962960      19.73804432      15.48287071
N        4.05143154      17.15649923      17.31233155
Ga       4.05041250      19.13283736      17.39219578
Ga       5.63043133      16.49593546      18.24987997
N        5.65832055      19.74637022      18.25128447
N        5.66345279      17.20988669      20.16895473
Ga       5.62768728      19.14044366      20.16230527
Ga       4.05047597      16.48701063      20.91673160
N        4.04882280      19.81218374      21.01724193
N        8.90941712       1.59906734       8.93493941
Ga       8.88029605       3.47637212       8.92503237
Ga       7.29460917       0.94327751       9.77152756
N        7.26636883       4.19329272       9.71533619
N        7.24804832       1.59366560      11.69864977
Ga       7.29447369       3.57334348      11.68199610
Ga       8.87750829       0.94055644      12.53760472
N        8.90707245       4.17638926      12.60221073
N        8.90327998       1.59079602      14.47213105
Ga       8.88147110       3.57456354      14.53802288
Ga       7.29540855       0.93904362      15.39605469
N        7.26819485       4.16800831      15.46007478
N        7.24926412       1.59426185      17.31824213
Ga       7.29448349       3.57502453      17.39198951
Ga       8.87611005       0.93770311      18.15524130
N        8.90454670       4.18982700      18.23775072
N        8.90482725       1.64625441      20.14859089
Ga       8.88009887       3.58188565      20.16166250
Ga       7.29596776       0.93076404      20.91465541
N        7.26172335       4.25150206      20.93612145
N        8.90874974       6.78472022       8.93548689
Ga       8.87891838       8.66183935       8.92483160
Ga       7.29459680       6.12922043       9.77155668
N        7.26671693       9.37978835       9.71228478
N        7.24902085       6.77928161      11.69914394
Ga       7.29499140       8.75951225      11.68197892
Ga       8.87812465       6.12654907      12.53761825
N        8.91469058       9.36014344      12.60203308
N        8.90161922       6.77556550      14.47282672
Ga       8.88010664       8.76062159      14.53809716
Ga       7.29539885       6.12509044      15.39597393
N        7.26586335       9.34936528      15.46550608
N        7.24583988       6.77929692      17.32115550
Ga       7.29492035       8.76055760      17.39118602
Ga       8.87581030       6.12357063      18.15542829
N        8.88062678       9.36468895      18.26579588
N        8.89036795       6.83536971      20.15859120
Ga       8.96884757       8.76458225      20.15844682
Ga       7.29616503       6.11429758      20.91442792
N        7.28373701       9.40943579      21.09178739
N        8.89715425      11.97599966       8.91128334
Ga       8.87891834      13.84873895       8.92477672
Ga       7.29490622      11.31538125       9.77145394
N        7.26603243      14.56659133       9.71037096
N        7.29316354      11.96528060      11.68506675
Ga       7.29504569      13.94475871      11.68181361
Ga       8.96059468      11.31244436      12.53958366
N        8.90867737      14.54964649      12.59838824
N        8.91168503      11.95697389      14.46434650
Ga       8.88040613      13.94635066      14.53799711
Ga       7.29497069      11.31143855      15.39526505
N        7.26895526      14.53598014      15.45810361
N        7.25701272      11.95573995      17.32132293
Ga       7.29600241      13.94708447      17.39217757
Ga       8.87747248      11.31129452      18.24925448
N        8.92112074      14.55833890      18.24732319
N        8.87208836      11.98546881      20.12077120
Ga       8.96399549      13.95144967      20.16167841
N        7.31946453      14.61685482      20.95034610
N        8.91062872      17.15797618       8.93304325
Ga       8.88044044      19.03438005       8.92496346
Ga       7.29517597      16.50126937       9.77088320
N        7.26649586      19.75178130       9.71371162
N        7.26634422      17.15513480      11.68435453
Ga       7.29462439      19.13179509      11.68188841
Ga       8.87800502      16.49842842      12.54020306
N        8.90681906      19.73458644      12.60129126
N        8.90606974      17.14584670      14.46835381
Ga       8.88124319      19.13233838      14.53818515
Ga       7.29507721      16.49743612      15.39643946
N        7.26824240      19.72636548      15.45767569
N        7.29270635      17.14549887      17.34039685
Ga       7.29494359      19.13198130      17.39223325
Ga       8.95970019      16.49631590      18.24969151
N        8.90927415      19.74914814      18.23778537
N        8.91348687      17.21471459      20.17237420
Ga       8.87964233      19.14131800      20.16170442
Ga       7.29596671      16.48874257      20.91514471
N        7.26419857      19.80639885      20.93775650
N       12.17414250       1.60120703       8.93093678
Ga      12.20748111       3.47555455       8.92477927
Ga      10.54158316       0.94322592       9.77143142
N       10.54231555       4.19134735       9.70397387
N       10.54079045       1.59435211      11.68834551
Ga      10.54163737       3.57340137      11.68178261
Ga      12.20670989       0.94018394      12.53984455
N       12.17482090       4.17711618      12.60693906
N       12.17987445       1.58722907      14.46542747
Ga      12.20718142       3.57397000      14.53758657
Ga      10.54194677       0.93925010      15.39507910
N       10.54147417       4.16441350      15.45428886
N       10.54774259       1.59135009      17.32144946
Ga      10.54182215       3.57511986      17.39219597
Ga      12.20649929       0.93842768      18.25047217
N       12.17515415       4.18499852      18.24928770
N       12.17743080       1.65343968      20.16660816
Ga      12.20796809       3.58258368      20.16228258
Ga      10.54079152       0.93095023      20.91375501
N       10.53748372       4.24523973      20.92508771
N       12.17480702       6.78702880       8.93141651
Ga      12.20797914       8.66104190       8.92457061
Ga      10.54158444       6.12923940       9.77110637
N       10.54204354       9.37948005       9.69032679
N       10.54130684       6.78041576      11.68705261
Ga      10.54192026       8.75945528      11.68154996
Ga      12.20671610       6.12614117      12.53984287
N       12.17577868       9.36272485      12.60666293
N       12.17888071       6.77212971      14.46543259
Ga      12.20751803       8.75999034      14.53778532
Ga      10.54184845       6.12528364      15.39503985
N       10.53658439       9.34732400      15.45668468
N       10.54310446       6.77552911      17.32356285
Ga      10.54130277       8.76160893      17.39231413
Ga      12.20680703       6.12435686      18.25090041
N       12.16724886       9.36468663      18.23783487
N       12.17322549       6.82581162      20.16137590
Ga      12.11614019       8.76802882      20.16102201
Ga      10.54101872       6.11681952      20.91475386
N       10.52391560       9.39268556      20.94009894
N       12.18875835      11.97734978       8.90821261
Ga      12.20799421      13.84790441       8.92452463
Ga      10.54171844      11.31506325       9.67868280
N       10.54236702      14.56115327       9.70096688
N       10.56681336      11.95902790      11.66148557
Ga      10.54185096      13.94506280      11.68162853
Ga      12.20716841      11.31214205      12.54045024
N       12.17747941      14.55072714      12.60443006
N       12.17930596      11.95830319      14.46106510
Ga      12.20755421      13.94597258      14.53764405
Ga      10.54170658      11.31161876      15.39523905
N       10.54111604      14.53865086      15.44654297
N       10.53501340      11.96199411      17.32465102
Ga      10.54205518      13.94625692      17.39145372
Ga      12.20712704      11.31042475      18.25010244
N       12.16697282      14.56792997      18.24314583
N       12.18480890      12.01087443      20.09245610
Ga      12.11945872      13.95126445      20.16136855
N       10.53872918      14.65902664      20.94631355
N       12.17368304      17.15903496       8.92902028
Ga      12.20743761      19.03350285       8.92472058
Ga      10.54152268      16.50123676       9.77121335
N       10.54250538      19.75004254       9.70436266
N       10.54146356      17.15218534      11.68776173
Ga      10.54163644      19.13137563      11.68173783
Ga      12.20660181      16.49811473      12.54102865
N       12.17573815      19.73506151      12.60659023
N       12.17850787      17.14668625      14.46620834
Ga      12.20721865      19.13196830      14.53770872
Ga      10.54173950      16.49713228      15.39532436
N       10.54189173      19.72197730      15.45434045
N       10.56406418      17.15158885      17.33824943
Ga      10.54194474      19.13333871      17.39229620
Ga      12.20838564      16.49623849      18.24983049
N       12.17745921      19.74729607      18.24988804
N       12.17455450      17.21686267      20.16853122
Ga      12.20801458      19.14072011      20.16235140
Ga      10.54194180      16.49195091      20.91473345
N       10.54074952      19.80572868      20.92560690
N       15.39951725       1.60112731       8.92540112
Ga      15.36495948       3.47567050       8.92475360
Ga      13.78753117       0.94389433       9.77154004
N       13.78638718       4.20879092       9.75577028
N       13.79788293       1.60543109      11.68048118
Ga      13.78736755       3.57340742      11.68238503
Ga      15.36538219       0.94032144      12.63470876
N       15.39574730       4.17742513      12.62187305
N       15.39551367       1.59936019      14.51270727
Ga      15.36570663       3.57449667      14.53827235
Ga      13.78602150       0.93948130      15.39701644
N       13.78640206       4.17954306      15.48162410
N       13.78498557       1.60005396      17.31194041
Ga      13.78705792       3.57483083      17.39221992
Ga      15.36520833       0.93810653      18.25226656
N       15.39645178       4.18512809      18.25082570
N       15.39690434       1.65088507      20.16677197
Ga      15.36433644       3.58248012      20.16230301
Ga      13.78700972       0.93084289      20.91678072
N       13.78606516       4.25189948      21.01790343
N       15.39920796       6.78702384       8.92565986
Ga      15.36495985       8.66164278       8.92471705
Ga      13.78754142       6.12983920       9.77156740
N       13.78541115       9.39558401       9.75482554
N       13.79775943       6.79061276      11.68062565
Ga      13.78724455       8.75907068      11.68229039
Ga      15.36548513       6.12628795      12.63468826
N       15.39757422       9.36246763      12.60988142
N       15.39742523       6.78550143      14.51362301
Ga      15.36572609       8.76126676      14.53816931
Ga      13.78602406       6.12551340      15.39706424
N       13.78702697       9.36215766      15.47981337
N       13.78588657       6.78273236      17.31045688
Ga      13.78681348       8.76103488      17.39274245
Ga      15.36588609       6.12413838      18.25089379
N       15.40493209       9.37105755      18.24840323
N       15.40160956       6.83369955      20.16702198
Ga      15.36524616       8.76863982      20.16247326
Ga      13.78687668       6.11741315      20.91664867
N       13.75747827       9.43109967      20.94521164
N       15.40066548      11.97344864       8.92872475
Ga      15.36499800      13.84774569       8.92474923
Ga      13.78758352      11.31576623       9.77088320
N       13.78595146      14.58088539       9.75446594
N       13.78872240      11.98143311      11.66401478
Ga      13.78717407      13.94555412      11.68218595
Ga      15.36773364      11.31211006      12.54073181
N       15.39745790      14.55027564      12.60576659
N       15.39908810      11.95862396      14.46141598
Ga      15.36569088      13.94587611      14.53786271
Ga      13.78737022      11.31180128      15.39599798
N       13.78675797      14.55288818      15.48092692
N       13.79252429      11.96959567      17.29710555
Ga      13.78667530      13.94647234      17.39293987
Ga      15.36508550      11.31039475      18.24971980
N       15.40318040      14.55985860      18.24960146
N       15.41351591      12.02390998      20.16823878
Ga      15.36520514      13.95450703      20.16251709
Ga      13.78456066      11.30344533      20.91519341
N       13.75595574      14.62598013      20.94784298
N       15.39979278      17.15991222       8.92815538
Ga      15.36495282      19.03383549       8.92480318
Ga      13.78709249      16.50182486       9.77086192
N       13.78634096      19.76721425       9.75490647
N       13.78680222      17.16867418      11.66629725
Ga      13.78727032      19.13193506      11.68224260
Ga      15.36589714      16.49788157      12.54086389
N       15.39596497      19.73529995      12.61846342
N       15.39547829      17.14500688      14.46586372
Ga      15.36566145      19.13132934      14.53812016
Ga      13.78716085      16.49770136      15.39587366
N       13.78657357      19.73877562      15.48174821
N       13.78880311      17.15933982      17.31101480
Ga      13.78715993      19.13283926      17.39223047
Ga      15.36708233      16.49616330      18.24985584
N       15.39652368      19.74699380      18.25055123
N       15.40024557      17.21263524      20.16764855
Ga      15.36433709      19.14046617      20.16228481
Ga      13.78686011      16.48799553      20.91663791
N       13.78581013      19.81346517      21.01735327
N       18.64675848       1.59904669       8.93490035
Ga      18.61706969       3.47636521       8.92501939
Ga      17.03138771       0.94327764       9.77152922
N       17.00375176       4.19354478       9.71448575
N       16.98575725       1.59352891      11.69836612
Ga      17.03125775       3.57334830      11.68199887
Ga      18.61431999       0.94055373      12.53761317
N       18.64499086       4.17578189      12.60166330
N       18.64232759       1.59030649      14.47194132
Ga      18.61817109       3.57460527      14.53804800
Ga      17.03222207       0.93905988      15.39606872
N       17.00637566       4.16691260      15.45841511
N       16.98996228       1.59309415      17.31702800
Ga      17.03151830       3.57540598      17.39214769
Ga      18.61294992       0.93763856      18.15546552
N       18.64701481       4.18444384      18.24427479
N       18.64626577       1.64421872      20.15019335
Ga      18.61723377       3.58143886      20.16178115
Ga      17.03276340       0.93079824      20.91468284
N       17.00550181       4.24917714      20.93650115
N       18.64759317       6.78583561       8.93536020
Ga      18.61713404       8.66244937       8.92499313
Ga      17.03147251       6.12930504       9.77155674
N       17.00381562       9.37909552       9.71156254
N       16.98820912       6.77936542      11.69858180
Ga      17.03183594       8.75956666      11.68196055
Ga      18.61506409       6.12640085      12.53799668
N       18.65556181       9.36188475      12.60156082
N       18.64329536       6.77179982      14.47017262
Ga      18.61832917       8.76036956      14.53817377
Ga      17.03272303       6.12514700      15.39702634
N       17.00966837       9.35055250      15.45923111
N       17.01018469       6.77410913      17.33882168
Ga      17.03186236       8.76085623      17.39221804
Ga      18.61703253       6.12429198      18.24916007
N       18.64991879       9.37083766      18.25187304
N       18.64951584       6.83938888      20.17250354
Ga      18.61052123       8.76882283      20.16273635
Ga      17.03203756       6.11672107      20.91555820
N       17.00309369       9.43172464      20.98747345
N       18.65146020      11.97171875       8.93252493
Ga      18.61722804      13.84837001       8.92490873
Ga      17.03213552      11.31539223       9.77150821
N       17.00394092      14.56726569       9.70929173
N       17.03216424      11.96554322      11.68621781
Ga      17.03185080      13.94476418      11.68179078
Ga      18.69596790      11.31227654      12.54021073
N       18.64752716      14.54822918      12.60046394
N       18.65778866      11.95755992      14.46915701
Ga      18.61814357      13.94635859      14.53810387
Ga      17.03202714      11.31143301      15.39541310
N       17.00843219      14.53564099      15.45805646
N       17.01305834      11.96114937      17.33419286
Ga      17.03203253      13.94736945      17.39226763
Ga      18.61506653      11.31045693      18.24970853
N       18.65389472      14.55740782      18.25027888
N       18.65226542      12.02423880      20.17373805
Ga      18.61015037      13.95480442      20.16241606
Ga      17.03194768      11.30241683      20.91577952
N       17.00187819      14.62076848      20.99018243
N       18.64815593      17.15789811       8.93295826
Ga      18.61719965      19.03436750       8.92495526
Ga      17.03196128      16.50129084       9.77086887
N       17.00376649      19.75168773       9.71356410
N       17.00448069      17.15498681      11.68432539
Ga      17.03140150      19.13180186      11.68189390
Ga      18.61485497      16.49839257      12.54020213
N       18.64444671      19.73425256      12.60157516
N       18.64593682      17.14483912      14.46892715
Ga      18.61796245      19.13234048      14.53818349
Ga      17.03184731      16.49744084      15.39645397
N       17.00630303      19.72613184      15.45698149
N       17.03217838      17.14625795      17.33932601
Ga      17.03169579      19.13201509      17.39223031
Ga      18.69612613      16.49643762      18.24931097
N       18.64865758      19.74737660      18.23779819
N       18.65545487      17.21033856      20.17155390
Ga      18.61719285      19.14114866      20.16164314
Ga      17.03207831      16.48867311      20.91527778
Ga      10.54304807      11.30804614      21.01999638
N       17.00372085      19.80517404      20.93704610
Ga       7.29807502      11.31107391      20.91523816
N        4.03922597       9.43063706      21.00500303
H        7.28492248       9.09378262      22.06857990
C       10.57666360      11.98048595      22.90759453
H        9.63148429      12.46181131      23.19527031
H       11.36088330      12.73663647      23.04591651
H       10.76630088      11.13628661      23.58191226
