14
Properties=species:S:1:pos:R:3 pbc="F F F"
C        1.00030000      -0.10850000      -0.03700000
C        0.46820000       0.39050000       1.29820000
C        0.96190000       1.80870000       1.56870000
C        0.48570000       2.75010000       0.47310000
H        0.64760000       0.55120000      -0.85860000
H        0.63440000      -1.13880000      -0.22660000
H       -0.64260000       0.37740000       1.28810000
H        0.82390000      -0.28610000       2.10480000
H        0.56830000       2.15950000       2.54710000
H        2.07210000       1.81660000       1.60860000
H        0.87530000       2.41300000      -0.50960000
H       -0.62460000       2.75550000       0.43540000
X        2.40010000      -0.10850000      -0.00870000
X        0.94880000       4.04400000       0.74000000
