10
Properties=species:S:1:pos:R:3 pbc="F F F"
C        1.15760000      -0.04370000       0.05520000
C        0.65300000      -0.85900000       1.22470000
C        1.17030000      -0.24750000       2.50600000
H        0.78640000       1.00100000       0.12740000
H        0.79090000      -0.49040000      -0.89170000
H       -0.45740000      -0.86250000       1.23220000
H        0.80630000      -0.83190000       3.37520000
X        2.55760000      -0.04230000       0.05870000
X        1.12270000      -2.17310000       1.11320000
X        2.57030000      -0.25350000       2.49260000
