14
Properties=species:S:1:pos:R:3 pbc="F F F"
C        1.04500000      -0.05710000       0.05930000
C        0.53300000      -1.01860000       1.12670000
C        1.07160000      -0.60000000       2.48750000
C       -0.98970000      -0.98820000       1.14660000
H        0.69200000       0.97640000       0.26890000
H        0.67730000      -0.36820000      -0.94160000
H        2.15560000      -0.06260000       0.04080000
H        0.88120000      -2.04900000       0.89710000
H        2.18220000      -0.60900000       2.48460000
H        0.73500000       0.43170000       2.72840000
H       -1.34700000       0.03970000       1.37270000
H       -1.39720000      -1.28380000       0.15640000
X        0.60030000      -1.48400000       3.46550000
X       -1.45910000      -1.87100000       2.12660000
