13
Properties=species:S:1:pos:R:3 pbc="F F F"
C        0.95110000       0.04820000      -0.06350000
C        0.44280000      -1.37640000      -0.25250000
C        0.98430000      -2.26070000       0.85660000
C       -1.07790000      -1.38360000      -0.20680000
H        0.59900000       0.45690000       0.90890000
H        0.57820000       0.69630000      -0.88470000
H        2.06160000       0.06340000      -0.08160000
H        0.78710000      -1.77140000      -1.23230000
H        0.65480000      -1.88010000       1.84820000
H       -1.42880000      -0.99390000       0.77350000
H       -1.49510000      -0.73420000      -1.00570000
X        0.51660000      -3.56830000       0.67960000
X       -1.54240000      -2.69280000      -0.38060000
