14
Properties=species:S:1:pos:R:3 pbc="F F F"
C        1.00060000      -0.07460000       0.06660000
C        0.48810000       0.77990000       1.22630000
C        1.02080000       2.20220000       1.08770000
C       -1.04230000       0.78960000       1.23840000
H        0.64630000       0.33500000      -0.90440000
H        0.63570000      -1.11850000       0.17150000
H        2.11120000      -0.09140000       0.06430000
H        0.85350000       0.35010000       2.18450000
H        0.67280000       2.65450000       0.13450000
H        0.64840000       2.83210000       1.92440000
H       -1.42810000      -0.24590000       1.35530000
H       -1.41740000       1.39690000       2.08950000
H       -1.43950000       1.21510000       0.29140000
X        2.42040000       2.17860000       1.10890000
