14
Properties=species:S:1:pos:R:3 pbc="F F F"
C        1.04390000       0.11790000      -0.12600000
C        0.47450000       1.06710000       0.94510000
C        1.35370000       1.04410000       2.18200000
C        0.38970000       2.51930000       0.44250000
H        0.63980000       0.37240000      -1.12770000
H        0.76440000      -0.93820000       0.08300000
H        2.15420000       0.18030000      -0.16510000
H       -0.55050000       0.72560000       1.21590000
H        0.97290000       1.73680000       2.95520000
H        2.38510000       1.35790000       1.89730000
H       -0.67920000       2.82220000       0.40620000
H        0.89450000       3.24370000       1.11890000
H        0.85140000       2.64000000      -0.55770000
X        1.39650000      -0.25810000       2.69430000
