13
Properties=species:S:1:pos:R:3 pbc="F F F"
C        1.07780000       0.07680000      -0.04310000
C        0.58770000      -0.84480000      -1.16010000
C        1.08680000      -2.27860000      -0.96670000
C        0.58980000      -3.17890000      -2.08570000
H        0.71180000      -0.28600000       0.94070000
H        0.70020000       1.10610000      -0.21290000
H        2.18830000       0.10900000      -0.02600000
H       -0.52410000      -0.84600000      -1.16640000
H        0.94060000      -0.45680000      -2.14050000
H        2.19690000      -2.29200000      -0.96390000
H        0.72490000      -2.67380000       0.00600000
H        0.95160000      -2.80470000      -3.06760000
X        1.06310000      -4.48020000      -1.87910000
